^C:\USERS\ADMIN\DOCUMENTS\VISUAL STUDIO 2015\PROJECTS\JENQA\WIN32PROJECT1\WIN32PROJECT1\DA.CPP
C:\USERS\ADMIN\DOCUMENTS\VISUAL STUDIO 2015\PROJECTS\JENQA\WIN32PROJECT1\WIN32PROJECT1\DEBUG\VC140.PDB
C:\USERS\ADMIN\DOCUMENTS\VISUAL STUDIO 2015\PROJECTS\JENQA\WIN32PROJECT1\WIN32PROJECT1\DEBUG\VC140.IDB
^C:\USERS\ADMIN\DOCUMENTS\VISUAL STUDIO 2015\PROJECTS\JENQA\WIN32PROJECT1\WIN32PROJECT1\DA.CPP|C:\USERS\ADMIN\DOCUMENTS\VISUAL STUDIO 2015\PROJECTS\JENQA\WIN32PROJECT1\WIN32PROJECT1\MAINFRAME.CPP
C:\USERS\ADMIN\DOCUMENTS\VISUAL STUDIO 2015\PROJECTS\JENQA\WIN32PROJECT1\WIN32PROJECT1\DEBUG\VC140.PDB
C:\USERS\ADMIN\DOCUMENTS\VISUAL STUDIO 2015\PROJECTS\JENQA\WIN32PROJECT1\WIN32PROJECT1\DEBUG\VC140.IDB
C:\USERS\ADMIN\DOCUMENTS\VISUAL STUDIO 2015\PROJECTS\JENQA\WIN32PROJECT1\WIN32PROJECT1\DEBUG\MAINFRAME.OBJ
^C:\USERS\ADMIN\DOCUMENTS\VISUAL STUDIO 2015\PROJECTS\JENQA\WIN32PROJECT1\WIN32PROJECT1\MAINFRAME.CPP
C:\USERS\ADMIN\DOCUMENTS\VISUAL STUDIO 2015\PROJECTS\JENQA\WIN32PROJECT1\WIN32PROJECT1\DEBUG\VC140.PDB
^C:\USERS\ADMIN\DOCUMENTS\VISUAL STUDIO 2015\PROJECTS\JENQA\WIN32PROJECT1\WIN32PROJECT1\TEXTEDITORAPP.CPP
C:\USERS\ADMIN\DOCUMENTS\VISUAL STUDIO 2015\PROJECTS\JENQA\WIN32PROJECT1\WIN32PROJECT1\DEBUG\VC140.PDB
C:\USERS\ADMIN\DOCUMENTS\VISUAL STUDIO 2015\PROJECTS\JENQA\WIN32PROJECT1\WIN32PROJECT1\DEBUG\VC140.IDB
C:\USERS\ADMIN\DOCUMENTS\VISUAL STUDIO 2015\PROJECTS\JENQA\WIN32PROJECT1\WIN32PROJECT1\DEBUG\TEXTEDITORAPP.OBJ
^E:\PROGRAMMING КН-17-1\WIN32PROJECT1\WIN32PROJECT1\MAINFRAME.CPP|E:\PROGRAMMING КН-17-1\WIN32PROJECT1\WIN32PROJECT1\TEXTEDITORAPP.CPP
E:\PROGRAMMING КН-17-1\WIN32PROJECT1\WIN32PROJECT1\DEBUG\VC140.PDB
E:\PROGRAMMING КН-17-1\WIN32PROJECT1\WIN32PROJECT1\DEBUG\VC140.IDB
E:\PROGRAMMING КН-17-1\WIN32PROJECT1\WIN32PROJECT1\DEBUG\TEXTEDITORAPP.OBJ
E:\PROGRAMMING КН-17-1\WIN32PROJECT1\WIN32PROJECT1\DEBUG\MAINFRAME.OBJ
^E:\PROGRAMMING КН-17-1\WIN32PROJECT1\WIN32PROJECT1\TEXTEDITORAPP.CPP
E:\PROGRAMMING КН-17-1\WIN32PROJECT1\WIN32PROJECT1\DEBUG\VC140.PDB
^E:\PROGRAMMING КН-17-1\WIN32PROJECT1\WIN32PROJECT1\MAINFRAME.CPP
E:\PROGRAMMING КН-17-1\WIN32PROJECT1\WIN32PROJECT1\DEBUG\VC140.PDB
