^C:\USERS\KRAME\SOURCE\REPOS\LAB_2.3\LAB_2.3\DEBUG\LAB23.OBJ|C:\USERS\KRAME\SOURCE\REPOS\LAB_2.3\LAB_2.3\DEBUG\STDAFX.OBJ
C:\USERS\KRAME\SOURCE\REPOS\LAB_2.3\DEBUG\LAB_2.3.EXE
C:\USERS\KRAME\SOURCE\REPOS\LAB_2.3\DEBUG\LAB_2.3.ILK
C:\USERS\KRAME\SOURCE\REPOS\LAB_2.3\DEBUG\LAB_2.3.PDB
