^C:\USERS\ADMIN\DOCUMENTS\VISUAL STUDIO 2015\PROJECTS\JENQA\WIN32PROJECT3\WIN32PROJECT3\DEBUG\MAINFRAME.OBJ|C:\USERS\ADMIN\DOCUMENTS\VISUAL STUDIO 2015\PROJECTS\JENQA\WIN32PROJECT3\WIN32PROJECT3\DEBUG\TODO.OBJ
C:\WINDOWS\GLOBALIZATION\SORTING\SORTDEFAULT.NLS
C:\PROGRAM FILES (X86)\WINDOWS KITS\8.1\LIB\WINV6.3\UM\X86\KERNEL32.LIB
C:\PROGRAM FILES (X86)\WINDOWS KITS\8.1\LIB\WINV6.3\UM\X86\USER32.LIB
C:\PROGRAM FILES (X86)\WINDOWS KITS\8.1\LIB\WINV6.3\UM\X86\GDI32.LIB
C:\PROGRAM FILES (X86)\WINDOWS KITS\8.1\LIB\WINV6.3\UM\X86\WINSPOOL.LIB
C:\PROGRAM FILES (X86)\WINDOWS KITS\8.1\LIB\WINV6.3\UM\X86\COMDLG32.LIB
C:\PROGRAM FILES (X86)\WINDOWS KITS\8.1\LIB\WINV6.3\UM\X86\ADVAPI32.LIB
C:\PROGRAM FILES (X86)\WINDOWS KITS\8.1\LIB\WINV6.3\UM\X86\SHELL32.LIB
C:\PROGRAM FILES (X86)\WINDOWS KITS\8.1\LIB\WINV6.3\UM\X86\OLE32.LIB
C:\PROGRAM FILES (X86)\WINDOWS KITS\8.1\LIB\WINV6.3\UM\X86\OLEAUT32.LIB
C:\PROGRAM FILES (X86)\WINDOWS KITS\8.1\LIB\WINV6.3\UM\X86\UUID.LIB
C:\PROGRAM FILES (X86)\WINDOWS KITS\8.1\LIB\WINV6.3\UM\X86\ODBC32.LIB
C:\PROGRAM FILES (X86)\WINDOWS KITS\8.1\LIB\WINV6.3\UM\X86\ODBCCP32.LIB
C:\USERS\ADMIN\DOCUMENTS\VISUAL STUDIO 2015\PROJECTS\JENQA\WIN32PROJECT3\WIN32PROJECT3\DEBUG\MAINFRAME.OBJ
C:\USERS\ADMIN\DOCUMENTS\VISUAL STUDIO 2015\PROJECTS\JENQA\WIN32PROJECT3\WIN32PROJECT3\DEBUG\TODO.OBJ
C:\WINDOWS\SYSTEM32\TZRES.DLL
C:\WXWIDGETS-3.0.4\LIB\VC_LIB\WXBASE30UD.LIB
C:\PROGRAM FILES (X86)\WINDOWS KITS\8.1\LIB\WINV6.3\UM\X86\WSOCK32.LIB
C:\WXWIDGETS-3.0.4\LIB\VC_LIB\WXBASE30UD_NET.LIB
C:\WXWIDGETS-3.0.4\LIB\VC_LIB\WXBASE30UD_XML.LIB
C:\WXWIDGETS-3.0.4\LIB\VC_LIB\WXREGEXUD.LIB
C:\WXWIDGETS-3.0.4\LIB\VC_LIB\WXEXPATD.LIB
C:\WXWIDGETS-3.0.4\LIB\VC_LIB\WXJPEGD.LIB
C:\WXWIDGETS-3.0.4\LIB\VC_LIB\WXPNGD.LIB
C:\WXWIDGETS-3.0.4\LIB\VC_LIB\WXTIFFD.LIB
C:\WXWIDGETS-3.0.4\LIB\VC_LIB\WXZLIBD.LIB
C:\WXWIDGETS-3.0.4\LIB\VC_LIB\WXMSW30UD_CORE.LIB
C:\WXWIDGETS-3.0.4\LIB\VC_LIB\WXMSW30UD_ADV.LIB
C:\WXWIDGETS-3.0.4\LIB\VC_LIB\WXMSW30UD_HTML.LIB
C:\WXWIDGETS-3.0.4\LIB\VC_LIB\WXMSW30UD_GL.LIB
C:\WXWIDGETS-3.0.4\LIB\VC_LIB\WXMSW30UD_QA.LIB
C:\WXWIDGETS-3.0.4\LIB\VC_LIB\WXMSW30UD_XRC.LIB
C:\WXWIDGETS-3.0.4\LIB\VC_LIB\WXMSW30UD_AUI.LIB
C:\WXWIDGETS-3.0.4\LIB\VC_LIB\WXMSW30UD_PROPGRID.LIB
C:\WXWIDGETS-3.0.4\LIB\VC_LIB\WXMSW30UD_RIBBON.LIB
C:\WXWIDGETS-3.0.4\LIB\VC_LIB\WXMSW30UD_RICHTEXT.LIB
C:\WXWIDGETS-3.0.4\LIB\VC_LIB\WXMSW30UD_MEDIA.LIB
C:\WXWIDGETS-3.0.4\LIB\VC_LIB\WXMSW30UD_STC.LIB
C:\WXWIDGETS-3.0.4\LIB\VC_LIB\WXSCINTILLAD.LIB
C:\WXWIDGETS-3.0.4\LIB\VC_LIB\WXMSW30UD_WEBVIEW.LIB
C:\PROGRAM FILES (X86)\WINDOWS KITS\8.1\LIB\WINV6.3\UM\X86\WINMM.LIB
C:\PROGRAM FILES (X86)\WINDOWS KITS\8.1\LIB\WINV6.3\UM\X86\COMCTL32.LIB
C:\PROGRAM FILES (X86)\WINDOWS KITS\8.1\LIB\WINV6.3\UM\X86\RPCRT4.LIB
C:\PROGRAM FILES (X86)\WINDOWS KITS\8.1\LIB\WINV6.3\UM\X86\OLEACC.LIB
C:\PROGRAM FILES (X86)\MICROSOFT VISUAL STUDIO 14.0\VC\LIB\MSVCPRTD.LIB
C:\PROGRAM FILES (X86)\MICROSOFT VISUAL STUDIO 14.0\VC\LIB\MSVCRTD.LIB
C:\PROGRAM FILES (X86)\MICROSOFT VISUAL STUDIO 14.0\VC\LIB\OLDNAMES.LIB
C:\PROGRAM FILES (X86)\MICROSOFT VISUAL STUDIO 14.0\VC\LIB\VCRUNTIMED.LIB
C:\PROGRAM FILES (X86)\WINDOWS KITS\10\LIB\10.0.10240.0\UCRT\X86\UCRTD.LIB
