^C:\USERS\ADMIN\DOCUMENTS\VISUAL STUDIO 2015\PROJECTS\JENQA\WIN32PROJECT3\WIN32PROJECT3\MAINFRAME.CPP
C:\WINDOWS\GLOBALIZATION\SORTING\SORTDEFAULT.NLS
C:\PROGRAM FILES (X86)\MICROSOFT VISUAL STUDIO 14.0\VC\BIN\1033\CLUI.DLL
C:\WINDOWS\SYSTEM32\TZRES.DLL
C:\USERS\ADMIN\DOCUMENTS\VISUAL STUDIO 2015\PROJECTS\JENQA\WIN32PROJECT3\WIN32PROJECT3\MAINFRAME.H
C:\WXWIDGETS-3.0.4\INCLUDE\WX\WX.H
C:\WXWIDGETS-3.0.4\INCLUDE\WX\DEFS.H
C:\WXWIDGETS-3.0.4\INCLUDE\WX\PLATFORM.H
C:\WXWIDGETS-3.0.4\INCLUDE\WX\COMPILER.H
C:\WXWIDGETS-3.0.4\INCLUDE\MSVC\WX\SETUP.H
C:\WXWIDGETS-3.0.4\INCLUDE\WX\VERSION.H
C:\WXWIDGETS-3.0.4\INCLUDE\WX\CPP.H
C:\WXWIDGETS-3.0.4\LIB\VC_LIB\MSWUD\WX\SETUP.H
C:\WXWIDGETS-3.0.4\INCLUDE\WX\MSW\LIBRARIES.H
C:\WXWIDGETS-3.0.4\INCLUDE\WX\CHKCONF.H
C:\WXWIDGETS-3.0.4\INCLUDE\WX\MSW\CHKCONF.H
C:\WXWIDGETS-3.0.4\INCLUDE\WX\DLIMPEXP.H
C:\PROGRAM FILES (X86)\WINDOWS KITS\10\INCLUDE\10.0.10240.0\UCRT\STDDEF.H
C:\PROGRAM FILES (X86)\WINDOWS KITS\10\INCLUDE\10.0.10240.0\UCRT\CORECRT.H
C:\PROGRAM FILES (X86)\MICROSOFT VISUAL STUDIO 14.0\VC\INCLUDE\VCRUNTIME.H
C:\PROGRAM FILES (X86)\MICROSOFT VISUAL STUDIO 14.0\VC\INCLUDE\SAL.H
C:\PROGRAM FILES (X86)\MICROSOFT VISUAL STUDIO 14.0\VC\INCLUDE\CONCURRENCYSAL.H
C:\PROGRAM FILES (X86)\MICROSOFT VISUAL STUDIO 14.0\VC\INCLUDE\VADEFS.H
C:\WXWIDGETS-3.0.4\INCLUDE\WX\DEBUG.H
C:\PROGRAM FILES (X86)\WINDOWS KITS\10\INCLUDE\10.0.10240.0\UCRT\ASSERT.H
C:\PROGRAM FILES (X86)\MICROSOFT VISUAL STUDIO 14.0\VC\INCLUDE\LIMITS.H
C:\WXWIDGETS-3.0.4\INCLUDE\WX\CHARTYPE.H
C:\PROGRAM FILES (X86)\WINDOWS KITS\10\INCLUDE\10.0.10240.0\UCRT\TCHAR.H
C:\PROGRAM FILES (X86)\WINDOWS KITS\10\INCLUDE\10.0.10240.0\UCRT\WCHAR.H
C:\PROGRAM FILES (X86)\WINDOWS KITS\10\INCLUDE\10.0.10240.0\UCRT\CORECRT_MEMCPY_S.H
C:\PROGRAM FILES (X86)\WINDOWS KITS\10\INCLUDE\10.0.10240.0\UCRT\ERRNO.H
C:\PROGRAM FILES (X86)\MICROSOFT VISUAL STUDIO 14.0\VC\INCLUDE\VCRUNTIME_STRING.H
C:\PROGRAM FILES (X86)\WINDOWS KITS\10\INCLUDE\10.0.10240.0\UCRT\CORECRT_WCONIO.H
C:\PROGRAM FILES (X86)\WINDOWS KITS\10\INCLUDE\10.0.10240.0\UCRT\CORECRT_STDIO_CONFIG.H
C:\PROGRAM FILES (X86)\WINDOWS KITS\10\INCLUDE\10.0.10240.0\UCRT\CORECRT_WCTYPE.H
C:\PROGRAM FILES (X86)\WINDOWS KITS\10\INCLUDE\10.0.10240.0\UCRT\CORECRT_WDIRECT.H
C:\PROGRAM FILES (X86)\WINDOWS KITS\10\INCLUDE\10.0.10240.0\UCRT\CORECRT_WIO.H
C:\PROGRAM FILES (X86)\WINDOWS KITS\10\INCLUDE\10.0.10240.0\UCRT\CORECRT_SHARE.H
C:\PROGRAM FILES (X86)\WINDOWS KITS\10\INCLUDE\10.0.10240.0\UCRT\CORECRT_WPROCESS.H
C:\PROGRAM FILES (X86)\WINDOWS KITS\10\INCLUDE\10.0.10240.0\UCRT\CORECRT_WSTDIO.H
C:\PROGRAM FILES (X86)\WINDOWS KITS\10\INCLUDE\10.0.10240.0\UCRT\CORECRT_WSTDLIB.H
C:\PROGRAM FILES (X86)\WINDOWS KITS\10\INCLUDE\10.0.10240.0\UCRT\CORECRT_WSTRING.H
C:\PROGRAM FILES (X86)\WINDOWS KITS\10\INCLUDE\10.0.10240.0\UCRT\CORECRT_WTIME.H
C:\PROGRAM FILES (X86)\WINDOWS KITS\10\INCLUDE\10.0.10240.0\UCRT\SYS\STAT.H
C:\PROGRAM FILES (X86)\WINDOWS KITS\10\INCLUDE\10.0.10240.0\UCRT\SYS\TYPES.H
C:\WXWIDGETS-3.0.4\INCLUDE\WX\WINDOWID.H
C:\WXWIDGETS-3.0.4\INCLUDE\WX\MSW\WINUNDEF.H
C:\WXWIDGETS-3.0.4\INCLUDE\WX\FEATURES.H
C:\WXWIDGETS-3.0.4\INCLUDE\WX\OBJECT.H
C:\WXWIDGETS-3.0.4\INCLUDE\WX\MEMORY.H
C:\WXWIDGETS-3.0.4\INCLUDE\WX\STRING.H
C:\PROGRAM FILES (X86)\WINDOWS KITS\10\INCLUDE\10.0.10240.0\UCRT\STRING.H
C:\PROGRAM FILES (X86)\WINDOWS KITS\10\INCLUDE\10.0.10240.0\UCRT\CORECRT_MEMORY.H
C:\PROGRAM FILES (X86)\WINDOWS KITS\10\INCLUDE\10.0.10240.0\UCRT\STDIO.H
C:\PROGRAM FILES (X86)\MICROSOFT VISUAL STUDIO 14.0\VC\INCLUDE\STDARG.H
C:\PROGRAM FILES (X86)\WINDOWS KITS\10\INCLUDE\10.0.10240.0\UCRT\STDLIB.H
C:\PROGRAM FILES (X86)\WINDOWS KITS\10\INCLUDE\10.0.10240.0\UCRT\CORECRT_MALLOC.H
C:\PROGRAM FILES (X86)\WINDOWS KITS\10\INCLUDE\10.0.10240.0\UCRT\CORECRT_SEARCH.H
C:\WXWIDGETS-3.0.4\INCLUDE\WX\WXCRTBASE.H
C:\PROGRAM FILES (X86)\WINDOWS KITS\10\INCLUDE\10.0.10240.0\UCRT\CTYPE.H
C:\PROGRAM FILES (X86)\WINDOWS KITS\10\INCLUDE\10.0.10240.0\UCRT\WCTYPE.H
C:\PROGRAM FILES (X86)\WINDOWS KITS\10\INCLUDE\10.0.10240.0\UCRT\TIME.H
C:\PROGRAM FILES (X86)\WINDOWS KITS\10\INCLUDE\10.0.10240.0\UCRT\IO.H
C:\PROGRAM FILES (X86)\WINDOWS KITS\10\INCLUDE\10.0.10240.0\UCRT\CORECRT_IO.H
C:\WXWIDGETS-3.0.4\INCLUDE\WX\STRVARARG.H
C:\WXWIDGETS-3.0.4\INCLUDE\WX\STRCONV.H
C:\WXWIDGETS-3.0.4\INCLUDE\WX\BUFFER.H
C:\WXWIDGETS-3.0.4\INCLUDE\WX\FONTENC.H
C:\WXWIDGETS-3.0.4\INCLUDE\WX\UNICHAR.H
C:\WXWIDGETS-3.0.4\INCLUDE\WX\STRINGIMPL.H
C:\WXWIDGETS-3.0.4\INCLUDE\WX\BEFORESTD.H
C:\PROGRAM FILES (X86)\MICROSOFT VISUAL STUDIO 14.0\VC\INCLUDE\STRING
C:\PROGRAM FILES (X86)\MICROSOFT VISUAL STUDIO 14.0\VC\INCLUDE\ISTREAM
C:\PROGRAM FILES (X86)\MICROSOFT VISUAL STUDIO 14.0\VC\INCLUDE\OSTREAM
C:\PROGRAM FILES (X86)\MICROSOFT VISUAL STUDIO 14.0\VC\INCLUDE\IOS
C:\PROGRAM FILES (X86)\MICROSOFT VISUAL STUDIO 14.0\VC\INCLUDE\XLOCNUM
C:\PROGRAM FILES (X86)\MICROSOFT VISUAL STUDIO 14.0\VC\INCLUDE\CLIMITS
C:\PROGRAM FILES (X86)\MICROSOFT VISUAL STUDIO 14.0\VC\INCLUDE\YVALS.H
C:\PROGRAM FILES (X86)\MICROSOFT VISUAL STUDIO 14.0\VC\INCLUDE\XKEYCHECK.H
C:\PROGRAM FILES (X86)\MICROSOFT VISUAL STUDIO 14.0\VC\INCLUDE\CRTDEFS.H
C:\PROGRAM FILES (X86)\MICROSOFT VISUAL STUDIO 14.0\VC\INCLUDE\USE_ANSI.H
C:\PROGRAM FILES (X86)\MICROSOFT VISUAL STUDIO 14.0\VC\INCLUDE\CMATH
C:\PROGRAM FILES (X86)\WINDOWS KITS\10\INCLUDE\10.0.10240.0\UCRT\MATH.H
C:\PROGRAM FILES (X86)\MICROSOFT VISUAL STUDIO 14.0\VC\INCLUDE\XTGMATH.H
C:\PROGRAM FILES (X86)\MICROSOFT VISUAL STUDIO 14.0\VC\INCLUDE\XTR1COMMON
C:\PROGRAM FILES (X86)\MICROSOFT VISUAL STUDIO 14.0\VC\INCLUDE\CSTDLIB
C:\PROGRAM FILES (X86)\MICROSOFT VISUAL STUDIO 14.0\VC\INCLUDE\CSTDIO
C:\PROGRAM FILES (X86)\MICROSOFT VISUAL STUDIO 14.0\VC\INCLUDE\STREAMBUF
C:\PROGRAM FILES (X86)\MICROSOFT VISUAL STUDIO 14.0\VC\INCLUDE\XIOSBASE
C:\PROGRAM FILES (X86)\MICROSOFT VISUAL STUDIO 14.0\VC\INCLUDE\XLOCALE
C:\PROGRAM FILES (X86)\MICROSOFT VISUAL STUDIO 14.0\VC\INCLUDE\CSTRING
C:\PROGRAM FILES (X86)\MICROSOFT VISUAL STUDIO 14.0\VC\INCLUDE\STDEXCEPT
C:\PROGRAM FILES (X86)\MICROSOFT VISUAL STUDIO 14.0\VC\INCLUDE\EXCEPTION
C:\PROGRAM FILES (X86)\MICROSOFT VISUAL STUDIO 14.0\VC\INCLUDE\TYPE_TRAITS
C:\PROGRAM FILES (X86)\MICROSOFT VISUAL STUDIO 14.0\VC\INCLUDE\XSTDDEF
C:\PROGRAM FILES (X86)\MICROSOFT VISUAL STUDIO 14.0\VC\INCLUDE\CSTDDEF
C:\PROGRAM FILES (X86)\MICROSOFT VISUAL STUDIO 14.0\VC\INCLUDE\INITIALIZER_LIST
C:\PROGRAM FILES (X86)\WINDOWS KITS\10\INCLUDE\10.0.10240.0\UCRT\MALLOC.H
C:\PROGRAM FILES (X86)\MICROSOFT VISUAL STUDIO 14.0\VC\INCLUDE\VCRUNTIME_EXCEPTION.H
C:\PROGRAM FILES (X86)\MICROSOFT VISUAL STUDIO 14.0\VC\INCLUDE\EH.H
C:\PROGRAM FILES (X86)\WINDOWS KITS\10\INCLUDE\10.0.10240.0\UCRT\CORECRT_TERMINATE.H
C:\PROGRAM FILES (X86)\MICROSOFT VISUAL STUDIO 14.0\VC\INCLUDE\XSTRING
C:\PROGRAM FILES (X86)\MICROSOFT VISUAL STUDIO 14.0\VC\INCLUDE\XMEMORY0
C:\PROGRAM FILES (X86)\MICROSOFT VISUAL STUDIO 14.0\VC\INCLUDE\CSTDINT
C:\PROGRAM FILES (X86)\MICROSOFT VISUAL STUDIO 14.0\VC\INCLUDE\STDINT.H
C:\PROGRAM FILES (X86)\MICROSOFT VISUAL STUDIO 14.0\VC\INCLUDE\LIMITS
C:\PROGRAM FILES (X86)\MICROSOFT VISUAL STUDIO 14.0\VC\INCLUDE\YMATH.H
C:\PROGRAM FILES (X86)\MICROSOFT VISUAL STUDIO 14.0\VC\INCLUDE\CFLOAT
C:\PROGRAM FILES (X86)\WINDOWS KITS\10\INCLUDE\10.0.10240.0\UCRT\FLOAT.H
C:\PROGRAM FILES (X86)\MICROSOFT VISUAL STUDIO 14.0\VC\INCLUDE\CWCHAR
C:\PROGRAM FILES (X86)\MICROSOFT VISUAL STUDIO 14.0\VC\INCLUDE\NEW
C:\PROGRAM FILES (X86)\MICROSOFT VISUAL STUDIO 14.0\VC\INCLUDE\VCRUNTIME_NEW.H
C:\PROGRAM FILES (X86)\MICROSOFT VISUAL STUDIO 14.0\VC\INCLUDE\XUTILITY
C:\PROGRAM FILES (X86)\MICROSOFT VISUAL STUDIO 14.0\VC\INCLUDE\UTILITY
C:\PROGRAM FILES (X86)\MICROSOFT VISUAL STUDIO 14.0\VC\INCLUDE\IOSFWD
C:\PROGRAM FILES (X86)\WINDOWS KITS\10\INCLUDE\10.0.10240.0\UCRT\CRTDBG.H
C:\PROGRAM FILES (X86)\MICROSOFT VISUAL STUDIO 14.0\VC\INCLUDE\VCRUNTIME_NEW_DEBUG.H
C:\PROGRAM FILES (X86)\MICROSOFT VISUAL STUDIO 14.0\VC\INCLUDE\XATOMIC0.H
C:\PROGRAM FILES (X86)\MICROSOFT VISUAL STUDIO 14.0\VC\INCLUDE\INTRIN.H
C:\PROGRAM FILES (X86)\MICROSOFT VISUAL STUDIO 14.0\VC\INCLUDE\SETJMP.H
C:\PROGRAM FILES (X86)\MICROSOFT VISUAL STUDIO 14.0\VC\INCLUDE\IMMINTRIN.H
C:\PROGRAM FILES (X86)\MICROSOFT VISUAL STUDIO 14.0\VC\INCLUDE\WMMINTRIN.H
C:\PROGRAM FILES (X86)\MICROSOFT VISUAL STUDIO 14.0\VC\INCLUDE\NMMINTRIN.H
C:\PROGRAM FILES (X86)\MICROSOFT VISUAL STUDIO 14.0\VC\INCLUDE\SMMINTRIN.H
C:\PROGRAM FILES (X86)\MICROSOFT VISUAL STUDIO 14.0\VC\INCLUDE\TMMINTRIN.H
C:\PROGRAM FILES (X86)\MICROSOFT VISUAL STUDIO 14.0\VC\INCLUDE\PMMINTRIN.H
C:\PROGRAM FILES (X86)\MICROSOFT VISUAL STUDIO 14.0\VC\INCLUDE\EMMINTRIN.H
C:\PROGRAM FILES (X86)\MICROSOFT VISUAL STUDIO 14.0\VC\INCLUDE\XMMINTRIN.H
C:\PROGRAM FILES (X86)\MICROSOFT VISUAL STUDIO 14.0\VC\INCLUDE\MMINTRIN.H
C:\PROGRAM FILES (X86)\MICROSOFT VISUAL STUDIO 14.0\VC\INCLUDE\AMMINTRIN.H
C:\PROGRAM FILES (X86)\MICROSOFT VISUAL STUDIO 14.0\VC\INCLUDE\MM3DNOW.H
C:\PROGRAM FILES (X86)\MICROSOFT VISUAL STUDIO 14.0\VC\INCLUDE\TYPEINFO
C:\PROGRAM FILES (X86)\MICROSOFT VISUAL STUDIO 14.0\VC\INCLUDE\VCRUNTIME_TYPEINFO.H
C:\PROGRAM FILES (X86)\MICROSOFT VISUAL STUDIO 14.0\VC\INCLUDE\XLOCINFO
C:\PROGRAM FILES (X86)\MICROSOFT VISUAL STUDIO 14.0\VC\INCLUDE\XLOCINFO.H
C:\PROGRAM FILES (X86)\WINDOWS KITS\10\INCLUDE\10.0.10240.0\UCRT\LOCALE.H
C:\PROGRAM FILES (X86)\MICROSOFT VISUAL STUDIO 14.0\VC\INCLUDE\XFACET
C:\PROGRAM FILES (X86)\MICROSOFT VISUAL STUDIO 14.0\VC\INCLUDE\SYSTEM_ERROR
C:\PROGRAM FILES (X86)\MICROSOFT VISUAL STUDIO 14.0\VC\INCLUDE\CERRNO
C:\PROGRAM FILES (X86)\WINDOWS KITS\10\INCLUDE\10.0.10240.0\UCRT\SHARE.H
C:\WXWIDGETS-3.0.4\INCLUDE\WX\AFTERSTD.H
C:\WXWIDGETS-3.0.4\INCLUDE\WX\STRINGOPS.H
C:\WXWIDGETS-3.0.4\INCLUDE\WX\IOSFWRAP.H
C:\WXWIDGETS-3.0.4\INCLUDE\WX\CRT.H
C:\WXWIDGETS-3.0.4\INCLUDE\WX\WXCRT.H
C:\WXWIDGETS-3.0.4\INCLUDE\WX\WXCRTVARARG.H
C:\WXWIDGETS-3.0.4\INCLUDE\WX\MSGOUT.H
C:\WXWIDGETS-3.0.4\INCLUDE\WX\XTI.H
C:\WXWIDGETS-3.0.4\INCLUDE\WX\RTTI.H
C:\WXWIDGETS-3.0.4\INCLUDE\WX\FLAGS.H
C:\WXWIDGETS-3.0.4\INCLUDE\WX\XTI2.H
C:\WXWIDGETS-3.0.4\INCLUDE\WX\DYNARRAY.H
C:\WXWIDGETS-3.0.4\INCLUDE\WX\LIST.H
C:\WXWIDGETS-3.0.4\INCLUDE\WX\VECTOR.H
C:\WXWIDGETS-3.0.4\INCLUDE\WX\SCOPEGUARD.H
C:\WXWIDGETS-3.0.4\INCLUDE\WX\EXCEPT.H
C:\WXWIDGETS-3.0.4\INCLUDE\WX\META\MOVABLE.H
C:\WXWIDGETS-3.0.4\INCLUDE\WX\META\POD.H
C:\WXWIDGETS-3.0.4\INCLUDE\WX\META\IF.H
C:\WXWIDGETS-3.0.4\INCLUDE\WX\HASH.H
C:\WXWIDGETS-3.0.4\INCLUDE\WX\HASHMAP.H
C:\WXWIDGETS-3.0.4\INCLUDE\WX\ARRSTR.H
C:\PROGRAM FILES (X86)\MICROSOFT VISUAL STUDIO 14.0\VC\INCLUDE\ITERATOR
C:\WXWIDGETS-3.0.4\INCLUDE\WX\INTL.H
C:\WXWIDGETS-3.0.4\INCLUDE\WX\TRANSLATION.H
C:\WXWIDGETS-3.0.4\INCLUDE\WX\LANGUAGE.H
C:\WXWIDGETS-3.0.4\INCLUDE\WX\SCOPEDPTR.H
C:\WXWIDGETS-3.0.4\INCLUDE\WX\CHECKEDDELETE.H
C:\WXWIDGETS-3.0.4\INCLUDE\WX\LOG.H
C:\WXWIDGETS-3.0.4\INCLUDE\WX\THREAD.H
C:\WXWIDGETS-3.0.4\INCLUDE\WX\GENERIC\LOGG.H
C:\WXWIDGETS-3.0.4\INCLUDE\WX\EVENT.H
C:\WXWIDGETS-3.0.4\INCLUDE\WX\CLNTDATA.H
C:\WXWIDGETS-3.0.4\INCLUDE\WX\GDICMN.H
C:\WXWIDGETS-3.0.4\INCLUDE\WX\MATH.H
C:\WXWIDGETS-3.0.4\INCLUDE\WX\CURSOR.H
C:\WXWIDGETS-3.0.4\INCLUDE\WX\MSW\CURSOR.H
C:\WXWIDGETS-3.0.4\INCLUDE\WX\MSW\GDIIMAGE.H
C:\WXWIDGETS-3.0.4\INCLUDE\WX\GDIOBJ.H
C:\WXWIDGETS-3.0.4\INCLUDE\WX\UTILS.H
C:\WXWIDGETS-3.0.4\INCLUDE\WX\FILEFN.H
C:\PROGRAM FILES (X86)\WINDOWS KITS\10\INCLUDE\10.0.10240.0\UCRT\DIRECT.H
C:\PROGRAM FILES (X86)\WINDOWS KITS\10\INCLUDE\10.0.10240.0\UCRT\DOS.H
C:\PROGRAM FILES (X86)\WINDOWS KITS\10\INCLUDE\10.0.10240.0\UCRT\FCNTL.H
C:\WXWIDGETS-3.0.4\INCLUDE\WX\VERSIONINFO.H
C:\WXWIDGETS-3.0.4\INCLUDE\WX\META\IMPLICITCONVERSION.H
C:\WXWIDGETS-3.0.4\INCLUDE\WX\MOUSESTATE.H
C:\WXWIDGETS-3.0.4\INCLUDE\WX\KBDSTATE.H
C:\WXWIDGETS-3.0.4\INCLUDE\WX\LONGLONG.H
C:\WXWIDGETS-3.0.4\INCLUDE\WX\PLATINFO.H
C:\WXWIDGETS-3.0.4\INCLUDE\WX\TRACKER.H
C:\WXWIDGETS-3.0.4\INCLUDE\WX\TYPEINFO.H
C:\WXWIDGETS-3.0.4\INCLUDE\WX\ANY.H
C:\WXWIDGETS-3.0.4\INCLUDE\WX\DATETIME.H
C:\WXWIDGETS-3.0.4\INCLUDE\WX\ANYSTR.H
C:\WXWIDGETS-3.0.4\INCLUDE\WX\VARIANT.H
C:\WXWIDGETS-3.0.4\INCLUDE\WX\META\CONVERTIBLE.H
C:\WXWIDGETS-3.0.4\INCLUDE\WX\META\REMOVEREF.H
C:\WXWIDGETS-3.0.4\INCLUDE\WX\APP.H
C:\WXWIDGETS-3.0.4\INCLUDE\WX\EVENTFILTER.H
C:\WXWIDGETS-3.0.4\INCLUDE\WX\BUILD.H
C:\WXWIDGETS-3.0.4\INCLUDE\WX\CMDARGS.H
C:\WXWIDGETS-3.0.4\INCLUDE\WX\INIT.H
C:\WXWIDGETS-3.0.4\INCLUDE\WX\MSW\INIT.H
C:\WXWIDGETS-3.0.4\INCLUDE\WX\MSW\WRAPWIN.H
C:\PROGRAM FILES (X86)\WINDOWS KITS\8.1\INCLUDE\UM\WINDOWS.H
C:\PROGRAM FILES (X86)\WINDOWS KITS\8.1\INCLUDE\SHARED\WINAPIFAMILY.H
C:\PROGRAM FILES (X86)\WINDOWS KITS\8.1\INCLUDE\SHARED\SDKDDKVER.H
C:\PROGRAM FILES (X86)\MICROSOFT VISUAL STUDIO 14.0\VC\INCLUDE\EXCPT.H
C:\PROGRAM FILES (X86)\WINDOWS KITS\8.1\INCLUDE\SHARED\WINDEF.H
C:\PROGRAM FILES (X86)\WINDOWS KITS\8.1\INCLUDE\SHARED\MINWINDEF.H
C:\PROGRAM FILES (X86)\WINDOWS KITS\8.1\INCLUDE\SHARED\SPECSTRINGS.H
C:\PROGRAM FILES (X86)\WINDOWS KITS\8.1\INCLUDE\SHARED\SPECSTRINGS_STRICT.H
C:\PROGRAM FILES (X86)\WINDOWS KITS\8.1\INCLUDE\SHARED\SPECSTRINGS_UNDEF.H
C:\PROGRAM FILES (X86)\WINDOWS KITS\8.1\INCLUDE\SHARED\DRIVERSPECS.H
C:\PROGRAM FILES (X86)\WINDOWS KITS\8.1\INCLUDE\SHARED\SDV_DRIVERSPECS.H
C:\PROGRAM FILES (X86)\WINDOWS KITS\8.1\INCLUDE\UM\WINNT.H
C:\PROGRAM FILES (X86)\WINDOWS KITS\8.1\INCLUDE\SHARED\KERNELSPECS.H
C:\PROGRAM FILES (X86)\WINDOWS KITS\8.1\INCLUDE\SHARED\BASETSD.H
C:\PROGRAM FILES (X86)\WINDOWS KITS\8.1\INCLUDE\SHARED\GUIDDEF.H
C:\PROGRAM FILES (X86)\WINDOWS KITS\8.1\INCLUDE\SHARED\PSHPACK4.H
C:\PROGRAM FILES (X86)\WINDOWS KITS\8.1\INCLUDE\SHARED\POPPACK.H
C:\PROGRAM FILES (X86)\WINDOWS KITS\8.1\INCLUDE\SHARED\PSHPACK2.H
C:\PROGRAM FILES (X86)\WINDOWS KITS\8.1\INCLUDE\SHARED\PSHPACK8.H
C:\PROGRAM FILES (X86)\WINDOWS KITS\8.1\INCLUDE\SHARED\APISET.H
C:\PROGRAM FILES (X86)\WINDOWS KITS\8.1\INCLUDE\SHARED\KTMTYPES.H
C:\PROGRAM FILES (X86)\WINDOWS KITS\8.1\INCLUDE\UM\WINBASE.H
C:\PROGRAM FILES (X86)\WINDOWS KITS\8.1\INCLUDE\SHARED\APISETCCONV.H
C:\PROGRAM FILES (X86)\WINDOWS KITS\8.1\INCLUDE\UM\MINWINBASE.H
C:\PROGRAM FILES (X86)\WINDOWS KITS\8.1\INCLUDE\UM\PROCESSENV.H
C:\PROGRAM FILES (X86)\WINDOWS KITS\8.1\INCLUDE\UM\FILEAPI.H
C:\PROGRAM FILES (X86)\WINDOWS KITS\8.1\INCLUDE\UM\DEBUGAPI.H
C:\PROGRAM FILES (X86)\WINDOWS KITS\8.1\INCLUDE\UM\UTILAPISET.H
C:\PROGRAM FILES (X86)\WINDOWS KITS\8.1\INCLUDE\UM\HANDLEAPI.H
C:\PROGRAM FILES (X86)\WINDOWS KITS\8.1\INCLUDE\UM\ERRHANDLINGAPI.H
C:\PROGRAM FILES (X86)\WINDOWS KITS\8.1\INCLUDE\UM\FIBERSAPI.H
C:\PROGRAM FILES (X86)\WINDOWS KITS\8.1\INCLUDE\UM\NAMEDPIPEAPI.H
C:\PROGRAM FILES (X86)\WINDOWS KITS\8.1\INCLUDE\UM\PROFILEAPI.H
C:\PROGRAM FILES (X86)\WINDOWS KITS\8.1\INCLUDE\UM\HEAPAPI.H
C:\PROGRAM FILES (X86)\WINDOWS KITS\8.1\INCLUDE\UM\IOAPISET.H
C:\PROGRAM FILES (X86)\WINDOWS KITS\8.1\INCLUDE\UM\SYNCHAPI.H
C:\PROGRAM FILES (X86)\WINDOWS KITS\8.1\INCLUDE\UM\INTERLOCKEDAPI.H
C:\PROGRAM FILES (X86)\WINDOWS KITS\8.1\INCLUDE\UM\PROCESSTHREADSAPI.H
C:\PROGRAM FILES (X86)\WINDOWS KITS\8.1\INCLUDE\UM\SYSINFOAPI.H
C:\PROGRAM FILES (X86)\WINDOWS KITS\8.1\INCLUDE\UM\MEMORYAPI.H
C:\PROGRAM FILES (X86)\WINDOWS KITS\8.1\INCLUDE\UM\THREADPOOLLEGACYAPISET.H
C:\PROGRAM FILES (X86)\WINDOWS KITS\8.1\INCLUDE\UM\THREADPOOLAPISET.H
C:\PROGRAM FILES (X86)\WINDOWS KITS\8.1\INCLUDE\UM\BEMAPISET.H
C:\PROGRAM FILES (X86)\WINDOWS KITS\8.1\INCLUDE\UM\JOBAPI.H
C:\PROGRAM FILES (X86)\WINDOWS KITS\8.1\INCLUDE\UM\WOW64APISET.H
C:\PROGRAM FILES (X86)\WINDOWS KITS\8.1\INCLUDE\UM\LIBLOADERAPI.H
C:\PROGRAM FILES (X86)\WINDOWS KITS\8.1\INCLUDE\UM\SECURITYBASEAPI.H
C:\PROGRAM FILES (X86)\WINDOWS KITS\8.1\INCLUDE\UM\NAMESPACEAPI.H
C:\PROGRAM FILES (X86)\WINDOWS KITS\8.1\INCLUDE\UM\SYSTEMTOPOLOGYAPI.H
C:\PROGRAM FILES (X86)\WINDOWS KITS\8.1\INCLUDE\UM\PROCESSTOPOLOGYAPI.H
C:\PROGRAM FILES (X86)\WINDOWS KITS\8.1\INCLUDE\UM\SECURITYAPPCONTAINER.H
C:\PROGRAM FILES (X86)\WINDOWS KITS\8.1\INCLUDE\UM\REALTIMEAPISET.H
C:\PROGRAM FILES (X86)\WINDOWS KITS\8.1\INCLUDE\SHARED\WINERROR.H
C:\PROGRAM FILES (X86)\WINDOWS KITS\8.1\INCLUDE\UM\TIMEZONEAPI.H
C:\PROGRAM FILES (X86)\WINDOWS KITS\8.1\INCLUDE\UM\WINGDI.H
C:\PROGRAM FILES (X86)\WINDOWS KITS\8.1\INCLUDE\SHARED\PSHPACK1.H
C:\PROGRAM FILES (X86)\WINDOWS KITS\8.1\INCLUDE\UM\WINUSER.H
C:\PROGRAM FILES (X86)\WINDOWS KITS\8.1\INCLUDE\SHARED\TVOUT.H
C:\PROGRAM FILES (X86)\WINDOWS KITS\8.1\INCLUDE\UM\WINNLS.H
C:\PROGRAM FILES (X86)\WINDOWS KITS\8.1\INCLUDE\UM\DATETIMEAPI.H
C:\PROGRAM FILES (X86)\WINDOWS KITS\8.1\INCLUDE\UM\STRINGAPISET.H
C:\PROGRAM FILES (X86)\WINDOWS KITS\8.1\INCLUDE\UM\WINCON.H
C:\PROGRAM FILES (X86)\WINDOWS KITS\8.1\INCLUDE\UM\CONSOLEAPI.H
C:\PROGRAM FILES (X86)\WINDOWS KITS\8.1\INCLUDE\UM\WINVER.H
C:\PROGRAM FILES (X86)\WINDOWS KITS\8.1\INCLUDE\UM\VERRSRC.H
C:\PROGRAM FILES (X86)\WINDOWS KITS\8.1\INCLUDE\UM\WINREG.H
C:\PROGRAM FILES (X86)\WINDOWS KITS\8.1\INCLUDE\UM\REASON.H
C:\PROGRAM FILES (X86)\WINDOWS KITS\8.1\INCLUDE\UM\WINNETWK.H
C:\PROGRAM FILES (X86)\WINDOWS KITS\8.1\INCLUDE\SHARED\WNNC.H
C:\PROGRAM FILES (X86)\WINDOWS KITS\8.1\INCLUDE\SHARED\CDERR.H
C:\PROGRAM FILES (X86)\WINDOWS KITS\8.1\INCLUDE\UM\DDE.H
C:\PROGRAM FILES (X86)\WINDOWS KITS\8.1\INCLUDE\UM\DDEML.H
C:\PROGRAM FILES (X86)\WINDOWS KITS\8.1\INCLUDE\UM\DLGS.H
C:\PROGRAM FILES (X86)\WINDOWS KITS\8.1\INCLUDE\UM\LZEXPAND.H
C:\PROGRAM FILES (X86)\WINDOWS KITS\8.1\INCLUDE\UM\MMSYSTEM.H
C:\PROGRAM FILES (X86)\WINDOWS KITS\8.1\INCLUDE\UM\MMSYSCOM.H
C:\PROGRAM FILES (X86)\WINDOWS KITS\8.1\INCLUDE\UM\MCIAPI.H
C:\PROGRAM FILES (X86)\WINDOWS KITS\8.1\INCLUDE\UM\MMISCAPI.H
C:\PROGRAM FILES (X86)\WINDOWS KITS\8.1\INCLUDE\UM\MMISCAPI2.H
C:\PROGRAM FILES (X86)\WINDOWS KITS\8.1\INCLUDE\UM\PLAYSOUNDAPI.H
C:\PROGRAM FILES (X86)\WINDOWS KITS\8.1\INCLUDE\UM\MMEAPI.H
C:\PROGRAM FILES (X86)\WINDOWS KITS\8.1\INCLUDE\UM\TIMEAPI.H
C:\PROGRAM FILES (X86)\WINDOWS KITS\8.1\INCLUDE\UM\JOYSTICKAPI.H
C:\PROGRAM FILES (X86)\WINDOWS KITS\8.1\INCLUDE\UM\NB30.H
C:\PROGRAM FILES (X86)\WINDOWS KITS\8.1\INCLUDE\SHARED\RPC.H
C:\PROGRAM FILES (X86)\WINDOWS KITS\8.1\INCLUDE\SHARED\RPCDCE.H
C:\PROGRAM FILES (X86)\WINDOWS KITS\8.1\INCLUDE\SHARED\RPCDCEP.H
C:\PROGRAM FILES (X86)\WINDOWS KITS\8.1\INCLUDE\UM\RPCNSI.H
C:\PROGRAM FILES (X86)\WINDOWS KITS\8.1\INCLUDE\SHARED\RPCNTERR.H
C:\PROGRAM FILES (X86)\WINDOWS KITS\8.1\INCLUDE\SHARED\RPCASYNC.H
C:\PROGRAM FILES (X86)\WINDOWS KITS\8.1\INCLUDE\UM\SHELLAPI.H
C:\PROGRAM FILES (X86)\WINDOWS KITS\8.1\INCLUDE\UM\WINPERF.H
C:\PROGRAM FILES (X86)\WINDOWS KITS\8.1\INCLUDE\UM\WINSOCK.H
C:\PROGRAM FILES (X86)\WINDOWS KITS\8.1\INCLUDE\SHARED\INADDR.H
C:\PROGRAM FILES (X86)\WINDOWS KITS\8.1\INCLUDE\UM\WINCRYPT.H
C:\PROGRAM FILES (X86)\WINDOWS KITS\8.1\INCLUDE\SHARED\BCRYPT.H
C:\PROGRAM FILES (X86)\WINDOWS KITS\8.1\INCLUDE\UM\NCRYPT.H
C:\PROGRAM FILES (X86)\WINDOWS KITS\8.1\INCLUDE\UM\DPAPI.H
C:\PROGRAM FILES (X86)\WINDOWS KITS\8.1\INCLUDE\UM\WINEFS.H
C:\PROGRAM FILES (X86)\WINDOWS KITS\8.1\INCLUDE\UM\WINSCARD.H
C:\PROGRAM FILES (X86)\WINDOWS KITS\8.1\INCLUDE\SHARED\WTYPES.H
C:\PROGRAM FILES (X86)\WINDOWS KITS\8.1\INCLUDE\SHARED\RPCNDR.H
C:\PROGRAM FILES (X86)\WINDOWS KITS\8.1\INCLUDE\UM\RPCNSIP.H
C:\PROGRAM FILES (X86)\WINDOWS KITS\8.1\INCLUDE\SHARED\RPCSAL.H
C:\PROGRAM FILES (X86)\WINDOWS KITS\8.1\INCLUDE\SHARED\WTYPESBASE.H
C:\PROGRAM FILES (X86)\WINDOWS KITS\8.1\INCLUDE\UM\WINIOCTL.H
C:\PROGRAM FILES (X86)\WINDOWS KITS\8.1\INCLUDE\SHARED\WINSMCRD.H
C:\PROGRAM FILES (X86)\WINDOWS KITS\8.1\INCLUDE\UM\WINSPOOL.H
C:\PROGRAM FILES (X86)\WINDOWS KITS\8.1\INCLUDE\UM\PRSHT.H
C:\PROGRAM FILES (X86)\WINDOWS KITS\8.1\INCLUDE\UM\OLE2.H
C:\PROGRAM FILES (X86)\WINDOWS KITS\8.1\INCLUDE\UM\OBJBASE.H
C:\PROGRAM FILES (X86)\WINDOWS KITS\8.1\INCLUDE\UM\COMBASEAPI.H
C:\PROGRAM FILES (X86)\WINDOWS KITS\8.1\INCLUDE\UM\UNKNWNBASE.H
C:\PROGRAM FILES (X86)\WINDOWS KITS\8.1\INCLUDE\UM\OBJIDLBASE.H
C:\PROGRAM FILES (X86)\WINDOWS KITS\8.1\INCLUDE\UM\CGUID.H
C:\PROGRAM FILES (X86)\WINDOWS KITS\8.1\INCLUDE\UM\OBJIDL.H
C:\PROGRAM FILES (X86)\WINDOWS KITS\8.1\INCLUDE\UM\UNKNWN.H
C:\PROGRAM FILES (X86)\WINDOWS KITS\8.1\INCLUDE\UM\URLMON.H
C:\PROGRAM FILES (X86)\WINDOWS KITS\8.1\INCLUDE\UM\OLEIDL.H
C:\PROGRAM FILES (X86)\WINDOWS KITS\8.1\INCLUDE\UM\SERVPROV.H
C:\PROGRAM FILES (X86)\WINDOWS KITS\8.1\INCLUDE\UM\MSXML.H
C:\PROGRAM FILES (X86)\WINDOWS KITS\8.1\INCLUDE\UM\OAIDL.H
C:\PROGRAM FILES (X86)\WINDOWS KITS\8.1\INCLUDE\UM\PROPIDL.H
C:\PROGRAM FILES (X86)\WINDOWS KITS\8.1\INCLUDE\UM\OLEAUTO.H
C:\PROGRAM FILES (X86)\WINDOWS KITS\8.1\INCLUDE\UM\COMMDLG.H
C:\PROGRAM FILES (X86)\WINDOWS KITS\8.1\INCLUDE\SHARED\STRALIGN.H
C:\PROGRAM FILES (X86)\WINDOWS KITS\8.1\INCLUDE\UM\WINSVC.H
C:\PROGRAM FILES (X86)\WINDOWS KITS\8.1\INCLUDE\UM\MCX.H
C:\PROGRAM FILES (X86)\WINDOWS KITS\8.1\INCLUDE\UM\IMM.H
C:\PROGRAM FILES (X86)\WINDOWS KITS\8.1\INCLUDE\UM\IME_CMODES.H
C:\WXWIDGETS-3.0.4\INCLUDE\WX\MSW\APP.H
C:\WXWIDGETS-3.0.4\INCLUDE\WX\ICON.H
C:\WXWIDGETS-3.0.4\INCLUDE\WX\ICONLOC.H
C:\WXWIDGETS-3.0.4\INCLUDE\WX\MSW\ICON.H
C:\WXWIDGETS-3.0.4\INCLUDE\WX\STREAM.H
C:\WXWIDGETS-3.0.4\INCLUDE\WX\STOPWATCH.H
C:\WXWIDGETS-3.0.4\INCLUDE\WX\TIME.H
C:\WXWIDGETS-3.0.4\INCLUDE\WX\TIMER.H
C:\WXWIDGETS-3.0.4\INCLUDE\WX\MODULE.H
C:\WXWIDGETS-3.0.4\INCLUDE\WX\WINDOW.H
C:\WXWIDGETS-3.0.4\INCLUDE\WX\FONT.H
C:\WXWIDGETS-3.0.4\INCLUDE\WX\MSW\FONT.H
C:\WXWIDGETS-3.0.4\INCLUDE\WX\COLOUR.H
C:\WXWIDGETS-3.0.4\INCLUDE\WX\MSW\COLOUR.H
C:\WXWIDGETS-3.0.4\INCLUDE\WX\REGION.H
C:\WXWIDGETS-3.0.4\INCLUDE\WX\MSW\REGION.H
C:\WXWIDGETS-3.0.4\INCLUDE\WX\VALIDATE.H
C:\WXWIDGETS-3.0.4\INCLUDE\WX\PALETTE.H
C:\WXWIDGETS-3.0.4\INCLUDE\WX\MSW\PALETTE.H
C:\WXWIDGETS-3.0.4\INCLUDE\WX\ACCEL.H
C:\WXWIDGETS-3.0.4\INCLUDE\WX\MSW\ACCEL.H
C:\WXWIDGETS-3.0.4\INCLUDE\WX\MSW\WINDOW.H
C:\WXWIDGETS-3.0.4\INCLUDE\WX\SETTINGS.H
C:\WXWIDGETS-3.0.4\INCLUDE\WX\CONTAINR.H
C:\WXWIDGETS-3.0.4\INCLUDE\WX\PANEL.H
C:\WXWIDGETS-3.0.4\INCLUDE\WX\MSW\PANEL.H
C:\WXWIDGETS-3.0.4\INCLUDE\WX\TOPLEVEL.H
C:\WXWIDGETS-3.0.4\INCLUDE\WX\NONOWNEDWND.H
C:\WXWIDGETS-3.0.4\INCLUDE\WX\MSW\NONOWNEDWND.H
C:\WXWIDGETS-3.0.4\INCLUDE\WX\ICONBNDL.H
C:\WXWIDGETS-3.0.4\INCLUDE\WX\WEAKREF.H
C:\WXWIDGETS-3.0.4\INCLUDE\WX\META\INT2TYPE.H
C:\WXWIDGETS-3.0.4\INCLUDE\WX\MSW\TOPLEVEL.H
C:\WXWIDGETS-3.0.4\INCLUDE\WX\FRAME.H
C:\WXWIDGETS-3.0.4\INCLUDE\WX\STATUSBR.H
C:\WXWIDGETS-3.0.4\INCLUDE\WX\CONTROL.H
C:\WXWIDGETS-3.0.4\INCLUDE\WX\MSW\CONTROL.H
C:\WXWIDGETS-3.0.4\INCLUDE\WX\MSW\STATUSBAR.H
C:\WXWIDGETS-3.0.4\INCLUDE\WX\TOOLTIP.H
C:\WXWIDGETS-3.0.4\INCLUDE\WX\MSW\TOOLTIP.H
C:\WXWIDGETS-3.0.4\INCLUDE\WX\MSW\FRAME.H
C:\WXWIDGETS-3.0.4\INCLUDE\WX\BITMAP.H
C:\WXWIDGETS-3.0.4\INCLUDE\WX\IMAGE.H
C:\WXWIDGETS-3.0.4\INCLUDE\WX\IMAGBMP.H
C:\WXWIDGETS-3.0.4\INCLUDE\WX\IMAGPNG.H
C:\WXWIDGETS-3.0.4\INCLUDE\WX\IMAGGIF.H
C:\WXWIDGETS-3.0.4\INCLUDE\WX\IMAGPCX.H
C:\WXWIDGETS-3.0.4\INCLUDE\WX\IMAGJPEG.H
C:\WXWIDGETS-3.0.4\INCLUDE\WX\IMAGTGA.H
C:\WXWIDGETS-3.0.4\INCLUDE\WX\IMAGTIFF.H
C:\WXWIDGETS-3.0.4\INCLUDE\WX\IMAGPNM.H
C:\WXWIDGETS-3.0.4\INCLUDE\WX\IMAGXPM.H
C:\WXWIDGETS-3.0.4\INCLUDE\WX\IMAGIFF.H
C:\WXWIDGETS-3.0.4\INCLUDE\WX\MSW\BITMAP.H
C:\WXWIDGETS-3.0.4\INCLUDE\WX\DC.H
C:\WXWIDGETS-3.0.4\INCLUDE\WX\BRUSH.H
C:\WXWIDGETS-3.0.4\INCLUDE\WX\MSW\BRUSH.H
C:\WXWIDGETS-3.0.4\INCLUDE\WX\PEN.H
C:\WXWIDGETS-3.0.4\INCLUDE\WX\MSW\PEN.H
C:\WXWIDGETS-3.0.4\INCLUDE\WX\AFFINEMATRIX2D.H
C:\WXWIDGETS-3.0.4\INCLUDE\WX\AFFINEMATRIX2DBASE.H
C:\WXWIDGETS-3.0.4\INCLUDE\WX\GEOMETRY.H
C:\WXWIDGETS-3.0.4\INCLUDE\WX\DCCLIENT.H
C:\WXWIDGETS-3.0.4\INCLUDE\WX\DCMEMORY.H
C:\WXWIDGETS-3.0.4\INCLUDE\WX\DCPRINT.H
C:\WXWIDGETS-3.0.4\INCLUDE\WX\DCSCREEN.H
C:\WXWIDGETS-3.0.4\INCLUDE\WX\BUTTON.H
C:\WXWIDGETS-3.0.4\INCLUDE\WX\ANYBUTTON.H
C:\WXWIDGETS-3.0.4\INCLUDE\WX\MSW\ANYBUTTON.H
C:\WXWIDGETS-3.0.4\INCLUDE\WX\MSW\BUTTON.H
C:\WXWIDGETS-3.0.4\INCLUDE\WX\MENUITEM.H
C:\WXWIDGETS-3.0.4\INCLUDE\WX\MSW\MENUITEM.H
C:\WXWIDGETS-3.0.4\INCLUDE\WX\OWNERDRW.H
C:\WXWIDGETS-3.0.4\INCLUDE\WX\MSW\OWNERDRW.H
C:\WXWIDGETS-3.0.4\INCLUDE\WX\MENU.H
C:\WXWIDGETS-3.0.4\INCLUDE\WX\MSW\MENU.H
C:\WXWIDGETS-3.0.4\INCLUDE\WX\DIALOG.H
C:\WXWIDGETS-3.0.4\INCLUDE\WX\SHAREDPTR.H
C:\WXWIDGETS-3.0.4\INCLUDE\WX\ATOMIC.H
C:\WXWIDGETS-3.0.4\INCLUDE\WX\MSW\DIALOG.H
C:\WXWIDGETS-3.0.4\INCLUDE\WX\MSGDLG.H
C:\WXWIDGETS-3.0.4\INCLUDE\WX\STOCKITEM.H
C:\WXWIDGETS-3.0.4\INCLUDE\WX\GENERIC\MSGDLGG.H
C:\WXWIDGETS-3.0.4\INCLUDE\WX\MSW\MSGDLG.H
C:\WXWIDGETS-3.0.4\INCLUDE\WX\DATAOBJ.H
C:\WXWIDGETS-3.0.4\INCLUDE\WX\MSW\OLE\DATAFORM.H
C:\WXWIDGETS-3.0.4\INCLUDE\WX\MSW\OLE\DATAOBJ.H
C:\WXWIDGETS-3.0.4\INCLUDE\WX\MSW\OLE\DATAOBJ2.H
C:\WXWIDGETS-3.0.4\INCLUDE\WX\CTRLSUB.H
C:\WXWIDGETS-3.0.4\INCLUDE\WX\MSW\CTRLSUB.H
C:\WXWIDGETS-3.0.4\INCLUDE\WX\BMPBUTTN.H
C:\WXWIDGETS-3.0.4\INCLUDE\WX\MSW\BMPBUTTN.H
C:\WXWIDGETS-3.0.4\INCLUDE\WX\CHECKBOX.H
C:\WXWIDGETS-3.0.4\INCLUDE\WX\MSW\CHECKBOX.H
C:\WXWIDGETS-3.0.4\INCLUDE\WX\CHECKLST.H
C:\WXWIDGETS-3.0.4\INCLUDE\WX\LISTBOX.H
C:\WXWIDGETS-3.0.4\INCLUDE\WX\MSW\LISTBOX.H
C:\WXWIDGETS-3.0.4\INCLUDE\WX\MSW\CHECKLST.H
C:\WXWIDGETS-3.0.4\INCLUDE\WX\CHOICE.H
C:\WXWIDGETS-3.0.4\INCLUDE\WX\MSW\CHOICE.H
C:\WXWIDGETS-3.0.4\INCLUDE\WX\SCROLBAR.H
C:\WXWIDGETS-3.0.4\INCLUDE\WX\MSW\SCROLBAR.H
C:\WXWIDGETS-3.0.4\INCLUDE\WX\STATTEXT.H
C:\WXWIDGETS-3.0.4\INCLUDE\WX\MSW\STATTEXT.H
C:\WXWIDGETS-3.0.4\INCLUDE\WX\STATBMP.H
C:\WXWIDGETS-3.0.4\INCLUDE\WX\MSW\STATBMP.H
C:\WXWIDGETS-3.0.4\INCLUDE\WX\STATBOX.H
C:\WXWIDGETS-3.0.4\INCLUDE\WX\MSW\STATBOX.H
C:\WXWIDGETS-3.0.4\INCLUDE\WX\RADIOBOX.H
C:\WXWIDGETS-3.0.4\INCLUDE\WX\MSW\RADIOBOX.H
C:\WXWIDGETS-3.0.4\INCLUDE\WX\RADIOBUT.H
C:\WXWIDGETS-3.0.4\INCLUDE\WX\MSW\RADIOBUT.H
C:\WXWIDGETS-3.0.4\INCLUDE\WX\TEXTCTRL.H
C:\WXWIDGETS-3.0.4\INCLUDE\WX\TEXTENTRY.H
C:\WXWIDGETS-3.0.4\INCLUDE\WX\MSW\TEXTENTRY.H
C:\WXWIDGETS-3.0.4\INCLUDE\WX\IOSWRAP.H
C:\PROGRAM FILES (X86)\MICROSOFT VISUAL STUDIO 14.0\VC\INCLUDE\IOSTREAM
C:\WXWIDGETS-3.0.4\INCLUDE\WX\MSW\TEXTCTRL.H
C:\WXWIDGETS-3.0.4\INCLUDE\WX\SLIDER.H
C:\WXWIDGETS-3.0.4\INCLUDE\WX\MSW\SLIDER.H
C:\WXWIDGETS-3.0.4\INCLUDE\WX\GAUGE.H
C:\WXWIDGETS-3.0.4\INCLUDE\WX\MSW\GAUGE.H
C:\WXWIDGETS-3.0.4\INCLUDE\WX\SCROLWIN.H
C:\WXWIDGETS-3.0.4\INCLUDE\WX\GENERIC\SCROLWIN.H
C:\WXWIDGETS-3.0.4\INCLUDE\WX\DIRDLG.H
C:\WXWIDGETS-3.0.4\INCLUDE\WX\MSW\DIRDLG.H
C:\WXWIDGETS-3.0.4\INCLUDE\WX\TOOLBAR.H
C:\WXWIDGETS-3.0.4\INCLUDE\WX\TBARBASE.H
C:\WXWIDGETS-3.0.4\INCLUDE\WX\MSW\TOOLBAR.H
C:\WXWIDGETS-3.0.4\INCLUDE\WX\IMAGLIST.H
C:\WXWIDGETS-3.0.4\INCLUDE\WX\MSW\IMAGLIST.H
C:\WXWIDGETS-3.0.4\INCLUDE\WX\COMBOBOX.H
C:\WXWIDGETS-3.0.4\INCLUDE\WX\MSW\COMBOBOX.H
C:\WXWIDGETS-3.0.4\INCLUDE\WX\LAYOUT.H
C:\WXWIDGETS-3.0.4\INCLUDE\WX\SIZER.H
C:\WXWIDGETS-3.0.4\INCLUDE\WX\CHOICDLG.H
C:\WXWIDGETS-3.0.4\INCLUDE\WX\GENERIC\CHOICDGG.H
C:\WXWIDGETS-3.0.4\INCLUDE\WX\TEXTDLG.H
C:\WXWIDGETS-3.0.4\INCLUDE\WX\GENERIC\TEXTDLGG.H
C:\WXWIDGETS-3.0.4\INCLUDE\WX\VALTEXT.H
C:\WXWIDGETS-3.0.4\INCLUDE\WX\FILEDLG.H
C:\WXWIDGETS-3.0.4\INCLUDE\WX\MSW\FILEDLG.H
C:\WXWIDGETS-3.0.4\INCLUDE\WX\MDI.H
C:\WXWIDGETS-3.0.4\INCLUDE\WX\MSW\MDI.H
^C:\USERS\ADMIN\DOCUMENTS\VISUAL STUDIO 2015\PROJECTS\JENQA\WIN32PROJECT3\WIN32PROJECT3\CALCAPP.CPP
C:\USERS\ADMIN\DOCUMENTS\VISUAL STUDIO 2015\PROJECTS\JENQA\WIN32PROJECT3\WIN32PROJECT3\CALCAPP.H
C:\WXWIDGETS-3.0.4\INCLUDE\WX\WX.H
C:\WXWIDGETS-3.0.4\INCLUDE\WX\DEFS.H
C:\WXWIDGETS-3.0.4\INCLUDE\WX\PLATFORM.H
C:\WXWIDGETS-3.0.4\INCLUDE\WX\COMPILER.H
C:\WXWIDGETS-3.0.4\INCLUDE\MSVC\WX\SETUP.H
C:\WXWIDGETS-3.0.4\INCLUDE\WX\VERSION.H
C:\WXWIDGETS-3.0.4\INCLUDE\WX\CPP.H
C:\WXWIDGETS-3.0.4\LIB\VC_LIB\MSWUD\WX\SETUP.H
C:\WXWIDGETS-3.0.4\INCLUDE\WX\MSW\LIBRARIES.H
C:\WXWIDGETS-3.0.4\INCLUDE\WX\CHKCONF.H
C:\WXWIDGETS-3.0.4\INCLUDE\WX\MSW\CHKCONF.H
C:\WXWIDGETS-3.0.4\INCLUDE\WX\DLIMPEXP.H
C:\PROGRAM FILES (X86)\WINDOWS KITS\10\INCLUDE\10.0.10240.0\UCRT\STDDEF.H
C:\PROGRAM FILES (X86)\WINDOWS KITS\10\INCLUDE\10.0.10240.0\UCRT\CORECRT.H
C:\PROGRAM FILES (X86)\MICROSOFT VISUAL STUDIO 14.0\VC\INCLUDE\VCRUNTIME.H
C:\PROGRAM FILES (X86)\MICROSOFT VISUAL STUDIO 14.0\VC\INCLUDE\SAL.H
C:\PROGRAM FILES (X86)\MICROSOFT VISUAL STUDIO 14.0\VC\INCLUDE\CONCURRENCYSAL.H
C:\PROGRAM FILES (X86)\MICROSOFT VISUAL STUDIO 14.0\VC\INCLUDE\VADEFS.H
C:\WXWIDGETS-3.0.4\INCLUDE\WX\DEBUG.H
C:\PROGRAM FILES (X86)\WINDOWS KITS\10\INCLUDE\10.0.10240.0\UCRT\ASSERT.H
C:\PROGRAM FILES (X86)\MICROSOFT VISUAL STUDIO 14.0\VC\INCLUDE\LIMITS.H
C:\WXWIDGETS-3.0.4\INCLUDE\WX\CHARTYPE.H
C:\PROGRAM FILES (X86)\WINDOWS KITS\10\INCLUDE\10.0.10240.0\UCRT\TCHAR.H
C:\PROGRAM FILES (X86)\WINDOWS KITS\10\INCLUDE\10.0.10240.0\UCRT\WCHAR.H
C:\PROGRAM FILES (X86)\WINDOWS KITS\10\INCLUDE\10.0.10240.0\UCRT\CORECRT_MEMCPY_S.H
C:\PROGRAM FILES (X86)\WINDOWS KITS\10\INCLUDE\10.0.10240.0\UCRT\ERRNO.H
C:\PROGRAM FILES (X86)\MICROSOFT VISUAL STUDIO 14.0\VC\INCLUDE\VCRUNTIME_STRING.H
C:\PROGRAM FILES (X86)\WINDOWS KITS\10\INCLUDE\10.0.10240.0\UCRT\CORECRT_WCONIO.H
C:\PROGRAM FILES (X86)\WINDOWS KITS\10\INCLUDE\10.0.10240.0\UCRT\CORECRT_STDIO_CONFIG.H
C:\PROGRAM FILES (X86)\WINDOWS KITS\10\INCLUDE\10.0.10240.0\UCRT\CORECRT_WCTYPE.H
C:\PROGRAM FILES (X86)\WINDOWS KITS\10\INCLUDE\10.0.10240.0\UCRT\CORECRT_WDIRECT.H
C:\PROGRAM FILES (X86)\WINDOWS KITS\10\INCLUDE\10.0.10240.0\UCRT\CORECRT_WIO.H
C:\PROGRAM FILES (X86)\WINDOWS KITS\10\INCLUDE\10.0.10240.0\UCRT\CORECRT_SHARE.H
C:\PROGRAM FILES (X86)\WINDOWS KITS\10\INCLUDE\10.0.10240.0\UCRT\CORECRT_WPROCESS.H
C:\PROGRAM FILES (X86)\WINDOWS KITS\10\INCLUDE\10.0.10240.0\UCRT\CORECRT_WSTDIO.H
C:\PROGRAM FILES (X86)\WINDOWS KITS\10\INCLUDE\10.0.10240.0\UCRT\CORECRT_WSTDLIB.H
C:\PROGRAM FILES (X86)\WINDOWS KITS\10\INCLUDE\10.0.10240.0\UCRT\CORECRT_WSTRING.H
C:\PROGRAM FILES (X86)\WINDOWS KITS\10\INCLUDE\10.0.10240.0\UCRT\CORECRT_WTIME.H
C:\PROGRAM FILES (X86)\WINDOWS KITS\10\INCLUDE\10.0.10240.0\UCRT\SYS\STAT.H
C:\PROGRAM FILES (X86)\WINDOWS KITS\10\INCLUDE\10.0.10240.0\UCRT\SYS\TYPES.H
C:\WXWIDGETS-3.0.4\INCLUDE\WX\WINDOWID.H
C:\WXWIDGETS-3.0.4\INCLUDE\WX\MSW\WINUNDEF.H
C:\WXWIDGETS-3.0.4\INCLUDE\WX\FEATURES.H
C:\WXWIDGETS-3.0.4\INCLUDE\WX\OBJECT.H
C:\WXWIDGETS-3.0.4\INCLUDE\WX\MEMORY.H
C:\WXWIDGETS-3.0.4\INCLUDE\WX\STRING.H
C:\PROGRAM FILES (X86)\WINDOWS KITS\10\INCLUDE\10.0.10240.0\UCRT\STRING.H
C:\PROGRAM FILES (X86)\WINDOWS KITS\10\INCLUDE\10.0.10240.0\UCRT\CORECRT_MEMORY.H
C:\PROGRAM FILES (X86)\WINDOWS KITS\10\INCLUDE\10.0.10240.0\UCRT\STDIO.H
C:\PROGRAM FILES (X86)\MICROSOFT VISUAL STUDIO 14.0\VC\INCLUDE\STDARG.H
C:\PROGRAM FILES (X86)\WINDOWS KITS\10\INCLUDE\10.0.10240.0\UCRT\STDLIB.H
C:\PROGRAM FILES (X86)\WINDOWS KITS\10\INCLUDE\10.0.10240.0\UCRT\CORECRT_MALLOC.H
C:\PROGRAM FILES (X86)\WINDOWS KITS\10\INCLUDE\10.0.10240.0\UCRT\CORECRT_SEARCH.H
C:\WXWIDGETS-3.0.4\INCLUDE\WX\WXCRTBASE.H
C:\PROGRAM FILES (X86)\WINDOWS KITS\10\INCLUDE\10.0.10240.0\UCRT\CTYPE.H
C:\PROGRAM FILES (X86)\WINDOWS KITS\10\INCLUDE\10.0.10240.0\UCRT\WCTYPE.H
C:\PROGRAM FILES (X86)\WINDOWS KITS\10\INCLUDE\10.0.10240.0\UCRT\TIME.H
C:\PROGRAM FILES (X86)\WINDOWS KITS\10\INCLUDE\10.0.10240.0\UCRT\IO.H
C:\PROGRAM FILES (X86)\WINDOWS KITS\10\INCLUDE\10.0.10240.0\UCRT\CORECRT_IO.H
C:\WXWIDGETS-3.0.4\INCLUDE\WX\STRVARARG.H
C:\WXWIDGETS-3.0.4\INCLUDE\WX\STRCONV.H
C:\WXWIDGETS-3.0.4\INCLUDE\WX\BUFFER.H
C:\WXWIDGETS-3.0.4\INCLUDE\WX\FONTENC.H
C:\WXWIDGETS-3.0.4\INCLUDE\WX\UNICHAR.H
C:\WXWIDGETS-3.0.4\INCLUDE\WX\STRINGIMPL.H
C:\WXWIDGETS-3.0.4\INCLUDE\WX\BEFORESTD.H
C:\PROGRAM FILES (X86)\MICROSOFT VISUAL STUDIO 14.0\VC\INCLUDE\STRING
C:\PROGRAM FILES (X86)\MICROSOFT VISUAL STUDIO 14.0\VC\INCLUDE\ISTREAM
C:\PROGRAM FILES (X86)\MICROSOFT VISUAL STUDIO 14.0\VC\INCLUDE\OSTREAM
C:\PROGRAM FILES (X86)\MICROSOFT VISUAL STUDIO 14.0\VC\INCLUDE\IOS
C:\PROGRAM FILES (X86)\MICROSOFT VISUAL STUDIO 14.0\VC\INCLUDE\XLOCNUM
C:\PROGRAM FILES (X86)\MICROSOFT VISUAL STUDIO 14.0\VC\INCLUDE\CLIMITS
C:\PROGRAM FILES (X86)\MICROSOFT VISUAL STUDIO 14.0\VC\INCLUDE\YVALS.H
C:\PROGRAM FILES (X86)\MICROSOFT VISUAL STUDIO 14.0\VC\INCLUDE\XKEYCHECK.H
C:\PROGRAM FILES (X86)\MICROSOFT VISUAL STUDIO 14.0\VC\INCLUDE\CRTDEFS.H
C:\PROGRAM FILES (X86)\MICROSOFT VISUAL STUDIO 14.0\VC\INCLUDE\USE_ANSI.H
C:\PROGRAM FILES (X86)\MICROSOFT VISUAL STUDIO 14.0\VC\INCLUDE\CMATH
C:\PROGRAM FILES (X86)\WINDOWS KITS\10\INCLUDE\10.0.10240.0\UCRT\MATH.H
C:\PROGRAM FILES (X86)\MICROSOFT VISUAL STUDIO 14.0\VC\INCLUDE\XTGMATH.H
C:\PROGRAM FILES (X86)\MICROSOFT VISUAL STUDIO 14.0\VC\INCLUDE\XTR1COMMON
C:\PROGRAM FILES (X86)\MICROSOFT VISUAL STUDIO 14.0\VC\INCLUDE\CSTDLIB
C:\PROGRAM FILES (X86)\MICROSOFT VISUAL STUDIO 14.0\VC\INCLUDE\CSTDIO
C:\PROGRAM FILES (X86)\MICROSOFT VISUAL STUDIO 14.0\VC\INCLUDE\STREAMBUF
C:\PROGRAM FILES (X86)\MICROSOFT VISUAL STUDIO 14.0\VC\INCLUDE\XIOSBASE
C:\PROGRAM FILES (X86)\MICROSOFT VISUAL STUDIO 14.0\VC\INCLUDE\XLOCALE
C:\PROGRAM FILES (X86)\MICROSOFT VISUAL STUDIO 14.0\VC\INCLUDE\CSTRING
C:\PROGRAM FILES (X86)\MICROSOFT VISUAL STUDIO 14.0\VC\INCLUDE\STDEXCEPT
C:\PROGRAM FILES (X86)\MICROSOFT VISUAL STUDIO 14.0\VC\INCLUDE\EXCEPTION
C:\PROGRAM FILES (X86)\MICROSOFT VISUAL STUDIO 14.0\VC\INCLUDE\TYPE_TRAITS
C:\PROGRAM FILES (X86)\MICROSOFT VISUAL STUDIO 14.0\VC\INCLUDE\XSTDDEF
C:\PROGRAM FILES (X86)\MICROSOFT VISUAL STUDIO 14.0\VC\INCLUDE\CSTDDEF
C:\PROGRAM FILES (X86)\MICROSOFT VISUAL STUDIO 14.0\VC\INCLUDE\INITIALIZER_LIST
C:\PROGRAM FILES (X86)\WINDOWS KITS\10\INCLUDE\10.0.10240.0\UCRT\MALLOC.H
C:\PROGRAM FILES (X86)\MICROSOFT VISUAL STUDIO 14.0\VC\INCLUDE\VCRUNTIME_EXCEPTION.H
C:\PROGRAM FILES (X86)\MICROSOFT VISUAL STUDIO 14.0\VC\INCLUDE\EH.H
C:\PROGRAM FILES (X86)\WINDOWS KITS\10\INCLUDE\10.0.10240.0\UCRT\CORECRT_TERMINATE.H
C:\PROGRAM FILES (X86)\MICROSOFT VISUAL STUDIO 14.0\VC\INCLUDE\XSTRING
C:\PROGRAM FILES (X86)\MICROSOFT VISUAL STUDIO 14.0\VC\INCLUDE\XMEMORY0
C:\PROGRAM FILES (X86)\MICROSOFT VISUAL STUDIO 14.0\VC\INCLUDE\CSTDINT
C:\PROGRAM FILES (X86)\MICROSOFT VISUAL STUDIO 14.0\VC\INCLUDE\STDINT.H
C:\PROGRAM FILES (X86)\MICROSOFT VISUAL STUDIO 14.0\VC\INCLUDE\LIMITS
C:\PROGRAM FILES (X86)\MICROSOFT VISUAL STUDIO 14.0\VC\INCLUDE\YMATH.H
C:\PROGRAM FILES (X86)\MICROSOFT VISUAL STUDIO 14.0\VC\INCLUDE\CFLOAT
C:\PROGRAM FILES (X86)\WINDOWS KITS\10\INCLUDE\10.0.10240.0\UCRT\FLOAT.H
C:\PROGRAM FILES (X86)\MICROSOFT VISUAL STUDIO 14.0\VC\INCLUDE\CWCHAR
C:\PROGRAM FILES (X86)\MICROSOFT VISUAL STUDIO 14.0\VC\INCLUDE\NEW
C:\PROGRAM FILES (X86)\MICROSOFT VISUAL STUDIO 14.0\VC\INCLUDE\VCRUNTIME_NEW.H
C:\PROGRAM FILES (X86)\MICROSOFT VISUAL STUDIO 14.0\VC\INCLUDE\XUTILITY
C:\PROGRAM FILES (X86)\MICROSOFT VISUAL STUDIO 14.0\VC\INCLUDE\UTILITY
C:\PROGRAM FILES (X86)\MICROSOFT VISUAL STUDIO 14.0\VC\INCLUDE\IOSFWD
C:\PROGRAM FILES (X86)\WINDOWS KITS\10\INCLUDE\10.0.10240.0\UCRT\CRTDBG.H
C:\PROGRAM FILES (X86)\MICROSOFT VISUAL STUDIO 14.0\VC\INCLUDE\VCRUNTIME_NEW_DEBUG.H
C:\PROGRAM FILES (X86)\MICROSOFT VISUAL STUDIO 14.0\VC\INCLUDE\XATOMIC0.H
C:\PROGRAM FILES (X86)\MICROSOFT VISUAL STUDIO 14.0\VC\INCLUDE\INTRIN.H
C:\PROGRAM FILES (X86)\MICROSOFT VISUAL STUDIO 14.0\VC\INCLUDE\SETJMP.H
C:\PROGRAM FILES (X86)\MICROSOFT VISUAL STUDIO 14.0\VC\INCLUDE\IMMINTRIN.H
C:\PROGRAM FILES (X86)\MICROSOFT VISUAL STUDIO 14.0\VC\INCLUDE\WMMINTRIN.H
C:\PROGRAM FILES (X86)\MICROSOFT VISUAL STUDIO 14.0\VC\INCLUDE\NMMINTRIN.H
C:\PROGRAM FILES (X86)\MICROSOFT VISUAL STUDIO 14.0\VC\INCLUDE\SMMINTRIN.H
C:\PROGRAM FILES (X86)\MICROSOFT VISUAL STUDIO 14.0\VC\INCLUDE\TMMINTRIN.H
C:\PROGRAM FILES (X86)\MICROSOFT VISUAL STUDIO 14.0\VC\INCLUDE\PMMINTRIN.H
C:\PROGRAM FILES (X86)\MICROSOFT VISUAL STUDIO 14.0\VC\INCLUDE\EMMINTRIN.H
C:\PROGRAM FILES (X86)\MICROSOFT VISUAL STUDIO 14.0\VC\INCLUDE\XMMINTRIN.H
C:\PROGRAM FILES (X86)\MICROSOFT VISUAL STUDIO 14.0\VC\INCLUDE\MMINTRIN.H
C:\PROGRAM FILES (X86)\MICROSOFT VISUAL STUDIO 14.0\VC\INCLUDE\AMMINTRIN.H
C:\PROGRAM FILES (X86)\MICROSOFT VISUAL STUDIO 14.0\VC\INCLUDE\MM3DNOW.H
C:\PROGRAM FILES (X86)\MICROSOFT VISUAL STUDIO 14.0\VC\INCLUDE\TYPEINFO
C:\PROGRAM FILES (X86)\MICROSOFT VISUAL STUDIO 14.0\VC\INCLUDE\VCRUNTIME_TYPEINFO.H
C:\PROGRAM FILES (X86)\MICROSOFT VISUAL STUDIO 14.0\VC\INCLUDE\XLOCINFO
C:\PROGRAM FILES (X86)\MICROSOFT VISUAL STUDIO 14.0\VC\INCLUDE\XLOCINFO.H
C:\PROGRAM FILES (X86)\WINDOWS KITS\10\INCLUDE\10.0.10240.0\UCRT\LOCALE.H
C:\PROGRAM FILES (X86)\MICROSOFT VISUAL STUDIO 14.0\VC\INCLUDE\XFACET
C:\PROGRAM FILES (X86)\MICROSOFT VISUAL STUDIO 14.0\VC\INCLUDE\SYSTEM_ERROR
C:\PROGRAM FILES (X86)\MICROSOFT VISUAL STUDIO 14.0\VC\INCLUDE\CERRNO
C:\PROGRAM FILES (X86)\WINDOWS KITS\10\INCLUDE\10.0.10240.0\UCRT\SHARE.H
C:\WXWIDGETS-3.0.4\INCLUDE\WX\AFTERSTD.H
C:\WXWIDGETS-3.0.4\INCLUDE\WX\STRINGOPS.H
C:\WXWIDGETS-3.0.4\INCLUDE\WX\IOSFWRAP.H
C:\WXWIDGETS-3.0.4\INCLUDE\WX\CRT.H
C:\WXWIDGETS-3.0.4\INCLUDE\WX\WXCRT.H
C:\WXWIDGETS-3.0.4\INCLUDE\WX\WXCRTVARARG.H
C:\WXWIDGETS-3.0.4\INCLUDE\WX\MSGOUT.H
C:\WXWIDGETS-3.0.4\INCLUDE\WX\XTI.H
C:\WXWIDGETS-3.0.4\INCLUDE\WX\RTTI.H
C:\WXWIDGETS-3.0.4\INCLUDE\WX\FLAGS.H
C:\WXWIDGETS-3.0.4\INCLUDE\WX\XTI2.H
C:\WXWIDGETS-3.0.4\INCLUDE\WX\DYNARRAY.H
C:\WXWIDGETS-3.0.4\INCLUDE\WX\LIST.H
C:\WXWIDGETS-3.0.4\INCLUDE\WX\VECTOR.H
C:\WXWIDGETS-3.0.4\INCLUDE\WX\SCOPEGUARD.H
C:\WXWIDGETS-3.0.4\INCLUDE\WX\EXCEPT.H
C:\WXWIDGETS-3.0.4\INCLUDE\WX\META\MOVABLE.H
C:\WXWIDGETS-3.0.4\INCLUDE\WX\META\POD.H
C:\WXWIDGETS-3.0.4\INCLUDE\WX\META\IF.H
C:\WXWIDGETS-3.0.4\INCLUDE\WX\HASH.H
C:\WXWIDGETS-3.0.4\INCLUDE\WX\HASHMAP.H
C:\WXWIDGETS-3.0.4\INCLUDE\WX\ARRSTR.H
C:\PROGRAM FILES (X86)\MICROSOFT VISUAL STUDIO 14.0\VC\INCLUDE\ITERATOR
C:\WXWIDGETS-3.0.4\INCLUDE\WX\INTL.H
C:\WXWIDGETS-3.0.4\INCLUDE\WX\TRANSLATION.H
C:\WXWIDGETS-3.0.4\INCLUDE\WX\LANGUAGE.H
C:\WXWIDGETS-3.0.4\INCLUDE\WX\SCOPEDPTR.H
C:\WXWIDGETS-3.0.4\INCLUDE\WX\CHECKEDDELETE.H
C:\WXWIDGETS-3.0.4\INCLUDE\WX\LOG.H
C:\WXWIDGETS-3.0.4\INCLUDE\WX\THREAD.H
C:\WXWIDGETS-3.0.4\INCLUDE\WX\GENERIC\LOGG.H
C:\WXWIDGETS-3.0.4\INCLUDE\WX\EVENT.H
C:\WXWIDGETS-3.0.4\INCLUDE\WX\CLNTDATA.H
C:\WXWIDGETS-3.0.4\INCLUDE\WX\GDICMN.H
C:\WXWIDGETS-3.0.4\INCLUDE\WX\MATH.H
C:\WXWIDGETS-3.0.4\INCLUDE\WX\CURSOR.H
C:\WXWIDGETS-3.0.4\INCLUDE\WX\MSW\CURSOR.H
C:\WXWIDGETS-3.0.4\INCLUDE\WX\MSW\GDIIMAGE.H
C:\WXWIDGETS-3.0.4\INCLUDE\WX\GDIOBJ.H
C:\WXWIDGETS-3.0.4\INCLUDE\WX\UTILS.H
C:\WXWIDGETS-3.0.4\INCLUDE\WX\FILEFN.H
C:\PROGRAM FILES (X86)\WINDOWS KITS\10\INCLUDE\10.0.10240.0\UCRT\DIRECT.H
C:\PROGRAM FILES (X86)\WINDOWS KITS\10\INCLUDE\10.0.10240.0\UCRT\DOS.H
C:\PROGRAM FILES (X86)\WINDOWS KITS\10\INCLUDE\10.0.10240.0\UCRT\FCNTL.H
C:\WXWIDGETS-3.0.4\INCLUDE\WX\VERSIONINFO.H
C:\WXWIDGETS-3.0.4\INCLUDE\WX\META\IMPLICITCONVERSION.H
C:\WXWIDGETS-3.0.4\INCLUDE\WX\MOUSESTATE.H
C:\WXWIDGETS-3.0.4\INCLUDE\WX\KBDSTATE.H
C:\WXWIDGETS-3.0.4\INCLUDE\WX\LONGLONG.H
C:\WXWIDGETS-3.0.4\INCLUDE\WX\PLATINFO.H
C:\WXWIDGETS-3.0.4\INCLUDE\WX\TRACKER.H
C:\WXWIDGETS-3.0.4\INCLUDE\WX\TYPEINFO.H
C:\WXWIDGETS-3.0.4\INCLUDE\WX\ANY.H
C:\WXWIDGETS-3.0.4\INCLUDE\WX\DATETIME.H
C:\WXWIDGETS-3.0.4\INCLUDE\WX\ANYSTR.H
C:\WXWIDGETS-3.0.4\INCLUDE\WX\VARIANT.H
C:\WXWIDGETS-3.0.4\INCLUDE\WX\META\CONVERTIBLE.H
C:\WXWIDGETS-3.0.4\INCLUDE\WX\META\REMOVEREF.H
C:\WXWIDGETS-3.0.4\INCLUDE\WX\APP.H
C:\WXWIDGETS-3.0.4\INCLUDE\WX\EVENTFILTER.H
C:\WXWIDGETS-3.0.4\INCLUDE\WX\BUILD.H
C:\WXWIDGETS-3.0.4\INCLUDE\WX\CMDARGS.H
C:\WXWIDGETS-3.0.4\INCLUDE\WX\INIT.H
C:\WXWIDGETS-3.0.4\INCLUDE\WX\MSW\INIT.H
C:\WXWIDGETS-3.0.4\INCLUDE\WX\MSW\WRAPWIN.H
C:\PROGRAM FILES (X86)\WINDOWS KITS\8.1\INCLUDE\UM\WINDOWS.H
C:\PROGRAM FILES (X86)\WINDOWS KITS\8.1\INCLUDE\SHARED\WINAPIFAMILY.H
C:\PROGRAM FILES (X86)\WINDOWS KITS\8.1\INCLUDE\SHARED\SDKDDKVER.H
C:\PROGRAM FILES (X86)\MICROSOFT VISUAL STUDIO 14.0\VC\INCLUDE\EXCPT.H
C:\PROGRAM FILES (X86)\WINDOWS KITS\8.1\INCLUDE\SHARED\WINDEF.H
C:\PROGRAM FILES (X86)\WINDOWS KITS\8.1\INCLUDE\SHARED\MINWINDEF.H
C:\PROGRAM FILES (X86)\WINDOWS KITS\8.1\INCLUDE\SHARED\SPECSTRINGS.H
C:\PROGRAM FILES (X86)\WINDOWS KITS\8.1\INCLUDE\SHARED\SPECSTRINGS_STRICT.H
C:\PROGRAM FILES (X86)\WINDOWS KITS\8.1\INCLUDE\SHARED\SPECSTRINGS_UNDEF.H
C:\PROGRAM FILES (X86)\WINDOWS KITS\8.1\INCLUDE\SHARED\DRIVERSPECS.H
C:\PROGRAM FILES (X86)\WINDOWS KITS\8.1\INCLUDE\SHARED\SDV_DRIVERSPECS.H
C:\PROGRAM FILES (X86)\WINDOWS KITS\8.1\INCLUDE\UM\WINNT.H
C:\PROGRAM FILES (X86)\WINDOWS KITS\8.1\INCLUDE\SHARED\KERNELSPECS.H
C:\PROGRAM FILES (X86)\WINDOWS KITS\8.1\INCLUDE\SHARED\BASETSD.H
C:\PROGRAM FILES (X86)\WINDOWS KITS\8.1\INCLUDE\SHARED\GUIDDEF.H
C:\PROGRAM FILES (X86)\WINDOWS KITS\8.1\INCLUDE\SHARED\PSHPACK4.H
C:\PROGRAM FILES (X86)\WINDOWS KITS\8.1\INCLUDE\SHARED\POPPACK.H
C:\PROGRAM FILES (X86)\WINDOWS KITS\8.1\INCLUDE\SHARED\PSHPACK2.H
C:\PROGRAM FILES (X86)\WINDOWS KITS\8.1\INCLUDE\SHARED\PSHPACK8.H
C:\PROGRAM FILES (X86)\WINDOWS KITS\8.1\INCLUDE\SHARED\APISET.H
C:\PROGRAM FILES (X86)\WINDOWS KITS\8.1\INCLUDE\SHARED\KTMTYPES.H
C:\PROGRAM FILES (X86)\WINDOWS KITS\8.1\INCLUDE\UM\WINBASE.H
C:\PROGRAM FILES (X86)\WINDOWS KITS\8.1\INCLUDE\SHARED\APISETCCONV.H
C:\PROGRAM FILES (X86)\WINDOWS KITS\8.1\INCLUDE\UM\MINWINBASE.H
C:\PROGRAM FILES (X86)\WINDOWS KITS\8.1\INCLUDE\UM\PROCESSENV.H
C:\PROGRAM FILES (X86)\WINDOWS KITS\8.1\INCLUDE\UM\FILEAPI.H
C:\PROGRAM FILES (X86)\WINDOWS KITS\8.1\INCLUDE\UM\DEBUGAPI.H
C:\PROGRAM FILES (X86)\WINDOWS KITS\8.1\INCLUDE\UM\UTILAPISET.H
C:\PROGRAM FILES (X86)\WINDOWS KITS\8.1\INCLUDE\UM\HANDLEAPI.H
C:\PROGRAM FILES (X86)\WINDOWS KITS\8.1\INCLUDE\UM\ERRHANDLINGAPI.H
C:\PROGRAM FILES (X86)\WINDOWS KITS\8.1\INCLUDE\UM\FIBERSAPI.H
C:\PROGRAM FILES (X86)\WINDOWS KITS\8.1\INCLUDE\UM\NAMEDPIPEAPI.H
C:\PROGRAM FILES (X86)\WINDOWS KITS\8.1\INCLUDE\UM\PROFILEAPI.H
C:\PROGRAM FILES (X86)\WINDOWS KITS\8.1\INCLUDE\UM\HEAPAPI.H
C:\PROGRAM FILES (X86)\WINDOWS KITS\8.1\INCLUDE\UM\IOAPISET.H
C:\PROGRAM FILES (X86)\WINDOWS KITS\8.1\INCLUDE\UM\SYNCHAPI.H
C:\PROGRAM FILES (X86)\WINDOWS KITS\8.1\INCLUDE\UM\INTERLOCKEDAPI.H
C:\PROGRAM FILES (X86)\WINDOWS KITS\8.1\INCLUDE\UM\PROCESSTHREADSAPI.H
C:\PROGRAM FILES (X86)\WINDOWS KITS\8.1\INCLUDE\UM\SYSINFOAPI.H
C:\PROGRAM FILES (X86)\WINDOWS KITS\8.1\INCLUDE\UM\MEMORYAPI.H
C:\PROGRAM FILES (X86)\WINDOWS KITS\8.1\INCLUDE\UM\THREADPOOLLEGACYAPISET.H
C:\PROGRAM FILES (X86)\WINDOWS KITS\8.1\INCLUDE\UM\THREADPOOLAPISET.H
C:\PROGRAM FILES (X86)\WINDOWS KITS\8.1\INCLUDE\UM\BEMAPISET.H
C:\PROGRAM FILES (X86)\WINDOWS KITS\8.1\INCLUDE\UM\JOBAPI.H
C:\PROGRAM FILES (X86)\WINDOWS KITS\8.1\INCLUDE\UM\WOW64APISET.H
C:\PROGRAM FILES (X86)\WINDOWS KITS\8.1\INCLUDE\UM\LIBLOADERAPI.H
C:\PROGRAM FILES (X86)\WINDOWS KITS\8.1\INCLUDE\UM\SECURITYBASEAPI.H
C:\PROGRAM FILES (X86)\WINDOWS KITS\8.1\INCLUDE\UM\NAMESPACEAPI.H
C:\PROGRAM FILES (X86)\WINDOWS KITS\8.1\INCLUDE\UM\SYSTEMTOPOLOGYAPI.H
C:\PROGRAM FILES (X86)\WINDOWS KITS\8.1\INCLUDE\UM\PROCESSTOPOLOGYAPI.H
C:\PROGRAM FILES (X86)\WINDOWS KITS\8.1\INCLUDE\UM\SECURITYAPPCONTAINER.H
C:\PROGRAM FILES (X86)\WINDOWS KITS\8.1\INCLUDE\UM\REALTIMEAPISET.H
C:\PROGRAM FILES (X86)\WINDOWS KITS\8.1\INCLUDE\SHARED\WINERROR.H
C:\PROGRAM FILES (X86)\WINDOWS KITS\8.1\INCLUDE\UM\TIMEZONEAPI.H
C:\PROGRAM FILES (X86)\WINDOWS KITS\8.1\INCLUDE\UM\WINGDI.H
C:\PROGRAM FILES (X86)\WINDOWS KITS\8.1\INCLUDE\SHARED\PSHPACK1.H
C:\PROGRAM FILES (X86)\WINDOWS KITS\8.1\INCLUDE\UM\WINUSER.H
C:\PROGRAM FILES (X86)\WINDOWS KITS\8.1\INCLUDE\SHARED\TVOUT.H
C:\PROGRAM FILES (X86)\WINDOWS KITS\8.1\INCLUDE\UM\WINNLS.H
C:\PROGRAM FILES (X86)\WINDOWS KITS\8.1\INCLUDE\UM\DATETIMEAPI.H
C:\PROGRAM FILES (X86)\WINDOWS KITS\8.1\INCLUDE\UM\STRINGAPISET.H
C:\PROGRAM FILES (X86)\WINDOWS KITS\8.1\INCLUDE\UM\WINCON.H
C:\PROGRAM FILES (X86)\WINDOWS KITS\8.1\INCLUDE\UM\CONSOLEAPI.H
C:\PROGRAM FILES (X86)\WINDOWS KITS\8.1\INCLUDE\UM\WINVER.H
C:\PROGRAM FILES (X86)\WINDOWS KITS\8.1\INCLUDE\UM\VERRSRC.H
C:\PROGRAM FILES (X86)\WINDOWS KITS\8.1\INCLUDE\UM\WINREG.H
C:\PROGRAM FILES (X86)\WINDOWS KITS\8.1\INCLUDE\UM\REASON.H
C:\PROGRAM FILES (X86)\WINDOWS KITS\8.1\INCLUDE\UM\WINNETWK.H
C:\PROGRAM FILES (X86)\WINDOWS KITS\8.1\INCLUDE\SHARED\WNNC.H
C:\PROGRAM FILES (X86)\WINDOWS KITS\8.1\INCLUDE\SHARED\CDERR.H
C:\PROGRAM FILES (X86)\WINDOWS KITS\8.1\INCLUDE\UM\DDE.H
C:\PROGRAM FILES (X86)\WINDOWS KITS\8.1\INCLUDE\UM\DDEML.H
C:\PROGRAM FILES (X86)\WINDOWS KITS\8.1\INCLUDE\UM\DLGS.H
C:\PROGRAM FILES (X86)\WINDOWS KITS\8.1\INCLUDE\UM\LZEXPAND.H
C:\PROGRAM FILES (X86)\WINDOWS KITS\8.1\INCLUDE\UM\MMSYSTEM.H
C:\PROGRAM FILES (X86)\WINDOWS KITS\8.1\INCLUDE\UM\MMSYSCOM.H
C:\PROGRAM FILES (X86)\WINDOWS KITS\8.1\INCLUDE\UM\MCIAPI.H
C:\PROGRAM FILES (X86)\WINDOWS KITS\8.1\INCLUDE\UM\MMISCAPI.H
C:\PROGRAM FILES (X86)\WINDOWS KITS\8.1\INCLUDE\UM\MMISCAPI2.H
C:\PROGRAM FILES (X86)\WINDOWS KITS\8.1\INCLUDE\UM\PLAYSOUNDAPI.H
C:\PROGRAM FILES (X86)\WINDOWS KITS\8.1\INCLUDE\UM\MMEAPI.H
C:\PROGRAM FILES (X86)\WINDOWS KITS\8.1\INCLUDE\UM\TIMEAPI.H
C:\PROGRAM FILES (X86)\WINDOWS KITS\8.1\INCLUDE\UM\JOYSTICKAPI.H
C:\PROGRAM FILES (X86)\WINDOWS KITS\8.1\INCLUDE\UM\NB30.H
C:\PROGRAM FILES (X86)\WINDOWS KITS\8.1\INCLUDE\SHARED\RPC.H
C:\PROGRAM FILES (X86)\WINDOWS KITS\8.1\INCLUDE\SHARED\RPCDCE.H
C:\PROGRAM FILES (X86)\WINDOWS KITS\8.1\INCLUDE\SHARED\RPCDCEP.H
C:\PROGRAM FILES (X86)\WINDOWS KITS\8.1\INCLUDE\UM\RPCNSI.H
C:\PROGRAM FILES (X86)\WINDOWS KITS\8.1\INCLUDE\SHARED\RPCNTERR.H
C:\PROGRAM FILES (X86)\WINDOWS KITS\8.1\INCLUDE\SHARED\RPCASYNC.H
C:\PROGRAM FILES (X86)\WINDOWS KITS\8.1\INCLUDE\UM\SHELLAPI.H
C:\PROGRAM FILES (X86)\WINDOWS KITS\8.1\INCLUDE\UM\WINPERF.H
C:\PROGRAM FILES (X86)\WINDOWS KITS\8.1\INCLUDE\UM\WINSOCK.H
C:\PROGRAM FILES (X86)\WINDOWS KITS\8.1\INCLUDE\SHARED\INADDR.H
C:\PROGRAM FILES (X86)\WINDOWS KITS\8.1\INCLUDE\UM\WINCRYPT.H
C:\PROGRAM FILES (X86)\WINDOWS KITS\8.1\INCLUDE\SHARED\BCRYPT.H
C:\PROGRAM FILES (X86)\WINDOWS KITS\8.1\INCLUDE\UM\NCRYPT.H
C:\PROGRAM FILES (X86)\WINDOWS KITS\8.1\INCLUDE\UM\DPAPI.H
C:\PROGRAM FILES (X86)\WINDOWS KITS\8.1\INCLUDE\UM\WINEFS.H
C:\PROGRAM FILES (X86)\WINDOWS KITS\8.1\INCLUDE\UM\WINSCARD.H
C:\PROGRAM FILES (X86)\WINDOWS KITS\8.1\INCLUDE\SHARED\WTYPES.H
C:\PROGRAM FILES (X86)\WINDOWS KITS\8.1\INCLUDE\SHARED\RPCNDR.H
C:\PROGRAM FILES (X86)\WINDOWS KITS\8.1\INCLUDE\UM\RPCNSIP.H
C:\PROGRAM FILES (X86)\WINDOWS KITS\8.1\INCLUDE\SHARED\RPCSAL.H
C:\PROGRAM FILES (X86)\WINDOWS KITS\8.1\INCLUDE\SHARED\WTYPESBASE.H
C:\PROGRAM FILES (X86)\WINDOWS KITS\8.1\INCLUDE\UM\WINIOCTL.H
C:\PROGRAM FILES (X86)\WINDOWS KITS\8.1\INCLUDE\SHARED\WINSMCRD.H
C:\PROGRAM FILES (X86)\WINDOWS KITS\8.1\INCLUDE\UM\WINSPOOL.H
C:\PROGRAM FILES (X86)\WINDOWS KITS\8.1\INCLUDE\UM\PRSHT.H
C:\PROGRAM FILES (X86)\WINDOWS KITS\8.1\INCLUDE\UM\OLE2.H
C:\PROGRAM FILES (X86)\WINDOWS KITS\8.1\INCLUDE\UM\OBJBASE.H
C:\PROGRAM FILES (X86)\WINDOWS KITS\8.1\INCLUDE\UM\COMBASEAPI.H
C:\PROGRAM FILES (X86)\WINDOWS KITS\8.1\INCLUDE\UM\UNKNWNBASE.H
C:\PROGRAM FILES (X86)\WINDOWS KITS\8.1\INCLUDE\UM\OBJIDLBASE.H
C:\PROGRAM FILES (X86)\WINDOWS KITS\8.1\INCLUDE\UM\CGUID.H
C:\PROGRAM FILES (X86)\WINDOWS KITS\8.1\INCLUDE\UM\OBJIDL.H
C:\PROGRAM FILES (X86)\WINDOWS KITS\8.1\INCLUDE\UM\UNKNWN.H
C:\PROGRAM FILES (X86)\WINDOWS KITS\8.1\INCLUDE\UM\URLMON.H
C:\PROGRAM FILES (X86)\WINDOWS KITS\8.1\INCLUDE\UM\OLEIDL.H
C:\PROGRAM FILES (X86)\WINDOWS KITS\8.1\INCLUDE\UM\SERVPROV.H
C:\PROGRAM FILES (X86)\WINDOWS KITS\8.1\INCLUDE\UM\MSXML.H
C:\PROGRAM FILES (X86)\WINDOWS KITS\8.1\INCLUDE\UM\OAIDL.H
C:\PROGRAM FILES (X86)\WINDOWS KITS\8.1\INCLUDE\UM\PROPIDL.H
C:\PROGRAM FILES (X86)\WINDOWS KITS\8.1\INCLUDE\UM\OLEAUTO.H
C:\PROGRAM FILES (X86)\WINDOWS KITS\8.1\INCLUDE\UM\COMMDLG.H
C:\PROGRAM FILES (X86)\WINDOWS KITS\8.1\INCLUDE\SHARED\STRALIGN.H
C:\PROGRAM FILES (X86)\WINDOWS KITS\8.1\INCLUDE\UM\WINSVC.H
C:\PROGRAM FILES (X86)\WINDOWS KITS\8.1\INCLUDE\UM\MCX.H
C:\PROGRAM FILES (X86)\WINDOWS KITS\8.1\INCLUDE\UM\IMM.H
C:\PROGRAM FILES (X86)\WINDOWS KITS\8.1\INCLUDE\UM\IME_CMODES.H
C:\WXWIDGETS-3.0.4\INCLUDE\WX\MSW\APP.H
C:\WXWIDGETS-3.0.4\INCLUDE\WX\ICON.H
C:\WXWIDGETS-3.0.4\INCLUDE\WX\ICONLOC.H
C:\WXWIDGETS-3.0.4\INCLUDE\WX\MSW\ICON.H
C:\WXWIDGETS-3.0.4\INCLUDE\WX\STREAM.H
C:\WXWIDGETS-3.0.4\INCLUDE\WX\STOPWATCH.H
C:\WXWIDGETS-3.0.4\INCLUDE\WX\TIME.H
C:\WXWIDGETS-3.0.4\INCLUDE\WX\TIMER.H
C:\WXWIDGETS-3.0.4\INCLUDE\WX\MODULE.H
C:\WXWIDGETS-3.0.4\INCLUDE\WX\WINDOW.H
C:\WXWIDGETS-3.0.4\INCLUDE\WX\FONT.H
C:\WXWIDGETS-3.0.4\INCLUDE\WX\MSW\FONT.H
C:\WXWIDGETS-3.0.4\INCLUDE\WX\COLOUR.H
C:\WXWIDGETS-3.0.4\INCLUDE\WX\MSW\COLOUR.H
C:\WXWIDGETS-3.0.4\INCLUDE\WX\REGION.H
C:\WXWIDGETS-3.0.4\INCLUDE\WX\MSW\REGION.H
C:\WXWIDGETS-3.0.4\INCLUDE\WX\VALIDATE.H
C:\WXWIDGETS-3.0.4\INCLUDE\WX\PALETTE.H
C:\WXWIDGETS-3.0.4\INCLUDE\WX\MSW\PALETTE.H
C:\WXWIDGETS-3.0.4\INCLUDE\WX\ACCEL.H
C:\WXWIDGETS-3.0.4\INCLUDE\WX\MSW\ACCEL.H
C:\WXWIDGETS-3.0.4\INCLUDE\WX\MSW\WINDOW.H
C:\WXWIDGETS-3.0.4\INCLUDE\WX\SETTINGS.H
C:\WXWIDGETS-3.0.4\INCLUDE\WX\CONTAINR.H
C:\WXWIDGETS-3.0.4\INCLUDE\WX\PANEL.H
C:\WXWIDGETS-3.0.4\INCLUDE\WX\MSW\PANEL.H
C:\WXWIDGETS-3.0.4\INCLUDE\WX\TOPLEVEL.H
C:\WXWIDGETS-3.0.4\INCLUDE\WX\NONOWNEDWND.H
C:\WXWIDGETS-3.0.4\INCLUDE\WX\MSW\NONOWNEDWND.H
C:\WXWIDGETS-3.0.4\INCLUDE\WX\ICONBNDL.H
C:\WXWIDGETS-3.0.4\INCLUDE\WX\WEAKREF.H
C:\WXWIDGETS-3.0.4\INCLUDE\WX\META\INT2TYPE.H
C:\WXWIDGETS-3.0.4\INCLUDE\WX\MSW\TOPLEVEL.H
C:\WXWIDGETS-3.0.4\INCLUDE\WX\FRAME.H
C:\WXWIDGETS-3.0.4\INCLUDE\WX\STATUSBR.H
C:\WXWIDGETS-3.0.4\INCLUDE\WX\CONTROL.H
C:\WXWIDGETS-3.0.4\INCLUDE\WX\MSW\CONTROL.H
C:\WXWIDGETS-3.0.4\INCLUDE\WX\MSW\STATUSBAR.H
C:\WXWIDGETS-3.0.4\INCLUDE\WX\TOOLTIP.H
C:\WXWIDGETS-3.0.4\INCLUDE\WX\MSW\TOOLTIP.H
C:\WXWIDGETS-3.0.4\INCLUDE\WX\MSW\FRAME.H
C:\WXWIDGETS-3.0.4\INCLUDE\WX\BITMAP.H
C:\WXWIDGETS-3.0.4\INCLUDE\WX\IMAGE.H
C:\WXWIDGETS-3.0.4\INCLUDE\WX\IMAGBMP.H
C:\WXWIDGETS-3.0.4\INCLUDE\WX\IMAGPNG.H
C:\WXWIDGETS-3.0.4\INCLUDE\WX\IMAGGIF.H
C:\WXWIDGETS-3.0.4\INCLUDE\WX\IMAGPCX.H
C:\WXWIDGETS-3.0.4\INCLUDE\WX\IMAGJPEG.H
C:\WXWIDGETS-3.0.4\INCLUDE\WX\IMAGTGA.H
C:\WXWIDGETS-3.0.4\INCLUDE\WX\IMAGTIFF.H
C:\WXWIDGETS-3.0.4\INCLUDE\WX\IMAGPNM.H
C:\WXWIDGETS-3.0.4\INCLUDE\WX\IMAGXPM.H
C:\WXWIDGETS-3.0.4\INCLUDE\WX\IMAGIFF.H
C:\WXWIDGETS-3.0.4\INCLUDE\WX\MSW\BITMAP.H
C:\WXWIDGETS-3.0.4\INCLUDE\WX\DC.H
C:\WXWIDGETS-3.0.4\INCLUDE\WX\BRUSH.H
C:\WXWIDGETS-3.0.4\INCLUDE\WX\MSW\BRUSH.H
C:\WXWIDGETS-3.0.4\INCLUDE\WX\PEN.H
C:\WXWIDGETS-3.0.4\INCLUDE\WX\MSW\PEN.H
C:\WXWIDGETS-3.0.4\INCLUDE\WX\AFFINEMATRIX2D.H
C:\WXWIDGETS-3.0.4\INCLUDE\WX\AFFINEMATRIX2DBASE.H
C:\WXWIDGETS-3.0.4\INCLUDE\WX\GEOMETRY.H
C:\WXWIDGETS-3.0.4\INCLUDE\WX\DCCLIENT.H
C:\WXWIDGETS-3.0.4\INCLUDE\WX\DCMEMORY.H
C:\WXWIDGETS-3.0.4\INCLUDE\WX\DCPRINT.H
C:\WXWIDGETS-3.0.4\INCLUDE\WX\DCSCREEN.H
C:\WXWIDGETS-3.0.4\INCLUDE\WX\BUTTON.H
C:\WXWIDGETS-3.0.4\INCLUDE\WX\ANYBUTTON.H
C:\WXWIDGETS-3.0.4\INCLUDE\WX\MSW\ANYBUTTON.H
C:\WXWIDGETS-3.0.4\INCLUDE\WX\MSW\BUTTON.H
C:\WXWIDGETS-3.0.4\INCLUDE\WX\MENUITEM.H
C:\WXWIDGETS-3.0.4\INCLUDE\WX\MSW\MENUITEM.H
C:\WXWIDGETS-3.0.4\INCLUDE\WX\OWNERDRW.H
C:\WXWIDGETS-3.0.4\INCLUDE\WX\MSW\OWNERDRW.H
C:\WXWIDGETS-3.0.4\INCLUDE\WX\MENU.H
C:\WXWIDGETS-3.0.4\INCLUDE\WX\MSW\MENU.H
C:\WXWIDGETS-3.0.4\INCLUDE\WX\DIALOG.H
C:\WXWIDGETS-3.0.4\INCLUDE\WX\SHAREDPTR.H
C:\WXWIDGETS-3.0.4\INCLUDE\WX\ATOMIC.H
C:\WXWIDGETS-3.0.4\INCLUDE\WX\MSW\DIALOG.H
C:\WXWIDGETS-3.0.4\INCLUDE\WX\MSGDLG.H
C:\WXWIDGETS-3.0.4\INCLUDE\WX\STOCKITEM.H
C:\WXWIDGETS-3.0.4\INCLUDE\WX\GENERIC\MSGDLGG.H
C:\WXWIDGETS-3.0.4\INCLUDE\WX\MSW\MSGDLG.H
C:\WXWIDGETS-3.0.4\INCLUDE\WX\DATAOBJ.H
C:\WXWIDGETS-3.0.4\INCLUDE\WX\MSW\OLE\DATAFORM.H
C:\WXWIDGETS-3.0.4\INCLUDE\WX\MSW\OLE\DATAOBJ.H
C:\WXWIDGETS-3.0.4\INCLUDE\WX\MSW\OLE\DATAOBJ2.H
C:\WXWIDGETS-3.0.4\INCLUDE\WX\CTRLSUB.H
C:\WXWIDGETS-3.0.4\INCLUDE\WX\MSW\CTRLSUB.H
C:\WXWIDGETS-3.0.4\INCLUDE\WX\BMPBUTTN.H
C:\WXWIDGETS-3.0.4\INCLUDE\WX\MSW\BMPBUTTN.H
C:\WXWIDGETS-3.0.4\INCLUDE\WX\CHECKBOX.H
C:\WXWIDGETS-3.0.4\INCLUDE\WX\MSW\CHECKBOX.H
C:\WXWIDGETS-3.0.4\INCLUDE\WX\CHECKLST.H
C:\WXWIDGETS-3.0.4\INCLUDE\WX\LISTBOX.H
C:\WXWIDGETS-3.0.4\INCLUDE\WX\MSW\LISTBOX.H
C:\WXWIDGETS-3.0.4\INCLUDE\WX\MSW\CHECKLST.H
C:\WXWIDGETS-3.0.4\INCLUDE\WX\CHOICE.H
C:\WXWIDGETS-3.0.4\INCLUDE\WX\MSW\CHOICE.H
C:\WXWIDGETS-3.0.4\INCLUDE\WX\SCROLBAR.H
C:\WXWIDGETS-3.0.4\INCLUDE\WX\MSW\SCROLBAR.H
C:\WXWIDGETS-3.0.4\INCLUDE\WX\STATTEXT.H
C:\WXWIDGETS-3.0.4\INCLUDE\WX\MSW\STATTEXT.H
C:\WXWIDGETS-3.0.4\INCLUDE\WX\STATBMP.H
C:\WXWIDGETS-3.0.4\INCLUDE\WX\MSW\STATBMP.H
C:\WXWIDGETS-3.0.4\INCLUDE\WX\STATBOX.H
C:\WXWIDGETS-3.0.4\INCLUDE\WX\MSW\STATBOX.H
C:\WXWIDGETS-3.0.4\INCLUDE\WX\RADIOBOX.H
C:\WXWIDGETS-3.0.4\INCLUDE\WX\MSW\RADIOBOX.H
C:\WXWIDGETS-3.0.4\INCLUDE\WX\RADIOBUT.H
C:\WXWIDGETS-3.0.4\INCLUDE\WX\MSW\RADIOBUT.H
C:\WXWIDGETS-3.0.4\INCLUDE\WX\TEXTCTRL.H
C:\WXWIDGETS-3.0.4\INCLUDE\WX\TEXTENTRY.H
C:\WXWIDGETS-3.0.4\INCLUDE\WX\MSW\TEXTENTRY.H
C:\WXWIDGETS-3.0.4\INCLUDE\WX\IOSWRAP.H
C:\PROGRAM FILES (X86)\MICROSOFT VISUAL STUDIO 14.0\VC\INCLUDE\IOSTREAM
C:\WXWIDGETS-3.0.4\INCLUDE\WX\MSW\TEXTCTRL.H
C:\WXWIDGETS-3.0.4\INCLUDE\WX\SLIDER.H
C:\WXWIDGETS-3.0.4\INCLUDE\WX\MSW\SLIDER.H
C:\WXWIDGETS-3.0.4\INCLUDE\WX\GAUGE.H
C:\WXWIDGETS-3.0.4\INCLUDE\WX\MSW\GAUGE.H
C:\WXWIDGETS-3.0.4\INCLUDE\WX\SCROLWIN.H
C:\WXWIDGETS-3.0.4\INCLUDE\WX\GENERIC\SCROLWIN.H
C:\WXWIDGETS-3.0.4\INCLUDE\WX\DIRDLG.H
C:\WXWIDGETS-3.0.4\INCLUDE\WX\MSW\DIRDLG.H
C:\WXWIDGETS-3.0.4\INCLUDE\WX\TOOLBAR.H
C:\WXWIDGETS-3.0.4\INCLUDE\WX\TBARBASE.H
C:\WXWIDGETS-3.0.4\INCLUDE\WX\MSW\TOOLBAR.H
C:\WXWIDGETS-3.0.4\INCLUDE\WX\IMAGLIST.H
C:\WXWIDGETS-3.0.4\INCLUDE\WX\MSW\IMAGLIST.H
C:\WXWIDGETS-3.0.4\INCLUDE\WX\COMBOBOX.H
C:\WXWIDGETS-3.0.4\INCLUDE\WX\MSW\COMBOBOX.H
C:\WXWIDGETS-3.0.4\INCLUDE\WX\LAYOUT.H
C:\WXWIDGETS-3.0.4\INCLUDE\WX\SIZER.H
C:\WXWIDGETS-3.0.4\INCLUDE\WX\CHOICDLG.H
C:\WXWIDGETS-3.0.4\INCLUDE\WX\GENERIC\CHOICDGG.H
C:\WXWIDGETS-3.0.4\INCLUDE\WX\TEXTDLG.H
C:\WXWIDGETS-3.0.4\INCLUDE\WX\GENERIC\TEXTDLGG.H
C:\WXWIDGETS-3.0.4\INCLUDE\WX\VALTEXT.H
C:\WXWIDGETS-3.0.4\INCLUDE\WX\FILEDLG.H
C:\WXWIDGETS-3.0.4\INCLUDE\WX\MSW\FILEDLG.H
C:\WXWIDGETS-3.0.4\INCLUDE\WX\MDI.H
C:\WXWIDGETS-3.0.4\INCLUDE\WX\MSW\MDI.H
C:\USERS\ADMIN\DOCUMENTS\VISUAL STUDIO 2015\PROJECTS\JENQA\WIN32PROJECT3\WIN32PROJECT3\MAINFRAME.H
