^C:\USERS\KRAME\SOURCE\REPOS\LUB-1.1\LUB-1.1\STDAFX.CPP
C:\USERS\KRAME\SOURCE\REPOS\LUB-1.1\LUB-1.1\DEBUG\LUB-1.1.PCH
C:\USERS\KRAME\SOURCE\REPOS\LUB-1.1\LUB-1.1\DEBUG\VC141.PDB
C:\USERS\KRAME\SOURCE\REPOS\LUB-1.1\LUB-1.1\DEBUG\VC141.IDB
C:\USERS\KRAME\SOURCE\REPOS\LUB-1.1\LUB-1.1\DEBUG\STDAFX.OBJ
^C:\USERS\KRAME\SOURCE\REPOS\LUB-1.1\LUB-1.1\LUB11.CPP
C:\USERS\KRAME\SOURCE\REPOS\LUB-1.1\LUB-1.1\DEBUG\VC141.PDB
C:\USERS\KRAME\SOURCE\REPOS\LUB-1.1\LUB-1.1\DEBUG\VC141.IDB
C:\USERS\KRAME\SOURCE\REPOS\LUB-1.1\LUB-1.1\DEBUG\LUB11.OBJ
